<svg width="18" height="20" viewBox="0 0 18 20" fill="none" xmlns="http://www.w3.org/2000/svg">
<path d="M17.485 10.7508C17.8269 10.1877 18.0052 9.54054 17.9999 8.88182C17.9999 7.23183 16.6041 5.67259 14.7817 5.67259H13.4137C13.6322 5.11664 13.7448 4.52471 13.7455 3.92735C13.7455 1.19774 12.3322 0 10.1729 0C7.86257 0 7.99457 3.55985 7.48195 4.07247C6.62883 4.92559 5.62121 6.56433 4.90347 7.19995H1.19999C0.881735 7.19995 0.576512 7.32638 0.35147 7.55142C0.126427 7.77647 0 8.08169 0 8.39995L0 17.3999C0 17.7181 0.126427 18.0234 0.35147 18.2484C0.576512 18.4735 0.881735 18.5999 1.19999 18.5999H3.59998C3.86587 18.6001 4.1243 18.512 4.33471 18.3495C4.54512 18.1869 4.69558 17.9591 4.76247 17.7018C6.43158 17.7393 7.5772 19.1995 11.4299 19.1995H12.2624C15.1544 19.1995 16.4624 17.7213 16.4976 15.6246C17.0179 14.8965 17.2496 14.0013 17.1479 13.1122C17.5346 12.3892 17.6539 11.5531 17.485 10.7508V10.7508ZM15.1694 12.7694C15.6404 13.5618 15.2167 14.6223 14.6467 14.9283C14.9354 16.7575 13.9863 17.3995 12.6547 17.3995H11.2364C8.54995 17.3995 6.81146 15.9813 4.79997 15.9813V8.99994H5.20947C6.27296 8.99994 7.75945 6.34158 8.75469 5.34522C9.81819 4.28172 9.46381 2.50911 10.1729 1.79999C11.9455 1.79999 11.9455 3.03748 11.9455 3.92735C11.9455 5.39622 10.8821 6.05434 10.8821 7.47258H14.782C15.5737 7.47258 16.1969 8.1817 16.2003 8.89082C16.2036 9.59994 15.7195 10.3087 15.3652 10.3087C15.871 10.8547 15.979 12.0052 15.1698 12.7694H15.1694ZM3.29998 16.1999C3.29998 16.3779 3.2472 16.5519 3.1483 16.6999C3.04941 16.8479 2.90885 16.9633 2.7444 17.0314C2.57995 17.0995 2.39899 17.1173 2.2244 17.0826C2.04982 17.0479 1.88946 16.9622 1.76359 16.8363C1.63773 16.7104 1.55201 16.5501 1.51728 16.3755C1.48256 16.2009 1.50038 16.0199 1.5685 15.8555C1.63662 15.691 1.75197 15.5505 1.89997 15.4516C2.04798 15.3527 2.22198 15.2999 2.39998 15.2999C2.63868 15.2999 2.8676 15.3947 3.03638 15.5635C3.20516 15.7323 3.29998 15.9612 3.29998 16.1999Z" fill="#006DC9"/>
</svg>
