<?xml version="1.0" encoding="utf-8"?>
<!-- Generator: Adobe Illustrator 25.0.1, SVG Export Plug-In . SVG Version: 6.00 Build 0)  -->
<svg version="1.1" id="圖層_1" xmlns="http://www.w3.org/2000/svg" xmlns:xlink="http://www.w3.org/1999/xlink" x="0px" y="0px"
	 viewBox="0 0 20 20" style="enable-background:new 0 0 20 20;" xml:space="preserve">
<style type="text/css">
	.st0{clip-path:url(#SVGID_2_);}
	.st1{fill:#424242;}
</style>
<g>
	<defs>
		<rect id="SVGID_1_" width="20" height="20"/>
	</defs>
	<clipPath id="SVGID_2_">
		<use xlink:href="#SVGID_1_"  style="overflow:visible;"/>
	</clipPath>
	<g class="st0">
		<path class="st1" d="M10,9.3c-0.7,0-1.4,0.3-1.9,0.8c-0.5,0.5-0.8,1.2-0.8,1.9c0,0.7,0.3,1.4,0.8,1.9c0.5,0.5,1.2,0.8,1.9,0.8
			c0.7,0,1.4-0.3,1.9-0.8c0.5-0.5,0.8-1.2,0.8-1.9s-0.3-1.4-0.8-1.9C11.4,9.6,10.8,9.3,10,9.3z M10,13.9c-0.3,0-0.5,0-0.8-0.1
			c-0.2-0.1-0.5-0.2-0.7-0.4c-0.2-0.2-0.3-0.4-0.4-0.6C8,12.5,8,12.2,8,12c0-0.5,0.2-1,0.6-1.4C9,10.2,9.5,10,10,10
			c0.5,0,1,0.2,1.4,0.6C11.8,11,12,11.4,12,12c0,0.5-0.2,1-0.6,1.4C11.1,13.7,10.6,13.9,10,13.9z"/>
		<path class="st1" d="M14.2,5.1c0-0.1,0-0.2,0.1-0.3c0.1-1.1-0.2-2.3-0.8-3.2c-0.4-0.4-0.8-0.8-1.3-1.1c-0.5-0.3-1-0.5-1.6-0.5
			C10,0,9.4,0,8.9,0.1s-1,0.4-1.5,0.7C6.5,1.6,5.9,2.6,5.7,3.7c0,0.5,0,0.9,0.1,1.4C4.6,5.8,3.7,6.9,3,8.1C2.4,9.2,2,10.6,2,12
			c0,2.1,0.8,4.2,2.4,5.7S7.9,20,10,20c2.1,0,4.1-0.9,5.6-2.4c1.5-1.5,2.3-3.5,2.3-5.7c0-1.4-0.4-2.7-1-3.9
			C16.3,6.9,15.4,5.8,14.2,5.1z M6.4,3.9c0.1-0.5,0.2-0.9,0.5-1.3c0.2-0.4,0.6-0.8,1-1.1C8.5,1,9.2,0.7,10,0.7h0.5
			c0.9,0.1,1.8,0.6,2.4,1.3c0.3,0.4,0.5,0.8,0.6,1.3c0.1,0.5,0.1,0.9,0.1,1.4c-1.1-0.5-2.3-0.8-3.5-0.8c-1.2,0-2.4,0.3-3.5,0.8
			C6.5,4.5,6.4,4.2,6.4,3.9z M10,19.3c-2,0-3.8-0.8-5.2-2.1c-1.4-1.4-2.2-3.2-2.2-5.2c0-1.2,0.3-2.4,0.9-3.5C4.1,7.4,5,6.5,6,5.8
			l0.6-0.4c1-0.6,2.2-0.9,3.4-0.8c1.2,0,2.3,0.3,3.3,0.8L14,5.8c1,0.6,1.9,1.6,2.5,2.6c0.6,1.1,0.9,2.3,0.9,3.5
			c0,1.9-0.8,3.8-2.2,5.2C13.8,18.5,12,19.3,10,19.3z"/>
	</g>
</g>
</svg>
