<?xml version="1.0" encoding="utf-8"?>
<!-- Generator: Adobe Illustrator 25.0.1, SVG Export Plug-In . SVG Version: 6.00 Build 0)  -->
<svg version="1.1" id="圖層_1" xmlns="http://www.w3.org/2000/svg" xmlns:xlink="http://www.w3.org/1999/xlink" x="0px" y="0px"
	 viewBox="0 0 20 20" style="enable-background:new 0 0 20 20;" xml:space="preserve">
<style type="text/css">
	.st0{fill:#424242;}
</style>
<path class="st0" d="M14.4,6.8c0.3,0.3,0.3,0.8,0,1.1l-5.2,5.2c-0.3,0.3-0.8,0.3-1.1,0l-2.5-2.5c-0.3-0.3-0.3-0.8,0-1.1
	c0.3-0.3,0.8-0.3,1.1,0l1.9,1.9l4.7-4.7C13.6,6.5,14.1,6.5,14.4,6.8z M20,10c0,5.5-4.5,10-10,10C4.5,20,0,15.5,0,10
	C0,4.5,4.5,0,10,0C15.5,0,20,4.5,20,10z M18.4,10c0-4.7-3.8-8.4-8.4-8.4c-4.7,0-8.4,3.8-8.4,8.4c0,4.7,3.8,8.4,8.4,8.4
	C14.7,18.4,18.4,14.7,18.4,10z"/>
</svg>
