<svg width="16" height="21" viewBox="0 0 16 21" fill="none" xmlns="http://www.w3.org/2000/svg">
<path d="M15.0664 7.66919H13.8164V6.00122C13.8164 2.78638 11.1992 0.169189 7.98438 0.169189C4.76953 0.169189 2.15234 2.78638 2.15234 6.00122V7.66919H0.902344C0.671875 7.66919 0.484375 7.85669 0.484375 8.08716V18.5051C0.484375 19.4231 1.23047 20.1692 2.15234 20.1692H13.8203C14.7383 20.1692 15.4883 19.4231 15.4883 18.5012V8.08716C15.4844 7.85669 15.2969 7.66919 15.0664 7.66919ZM9.23047 16.3723C9.24219 16.4895 9.20703 16.6067 9.125 16.6965C9.04688 16.7864 8.93359 16.8372 8.81641 16.8372H7.14844C7.03125 16.8372 6.91797 16.7864 6.83984 16.6965C6.76172 16.6067 6.72266 16.4895 6.73438 16.3723L6.99609 14.009C6.57031 13.7004 6.3125 13.2083 6.3125 12.6692C6.3125 11.7512 7.05859 11.0012 7.98047 11.0012C8.90234 11.0012 9.64844 11.7473 9.64844 12.6692C9.64844 13.2083 9.39453 13.7004 8.96484 14.009L9.23047 16.3723ZM11.3164 7.66919H4.65234V6.00122C4.65234 4.16138 6.14844 2.66919 7.98438 2.66919C9.82031 2.66919 11.3164 4.16528 11.3164 6.00122V7.66919Z" fill="#006DC9"/>
</svg>
