<?xml version="1.0" encoding="utf-8"?>
<!-- Generator: Adobe Illustrator 25.0.1, SVG Export Plug-In . SVG Version: 6.00 Build 0)  -->
<svg version="1.1" id="圖層_1" xmlns="http://www.w3.org/2000/svg" xmlns:xlink="http://www.w3.org/1999/xlink" x="0px" y="0px"
	 viewBox="0 0 20 20" style="enable-background:new 0 0 20 20;" xml:space="preserve">
<style type="text/css">
	.st0{clip-path:url(#SVGID_2_);}
	.st1{fill:#424242;}
</style>
<g>
	<g>
		<defs>
			<rect id="SVGID_1_" width="20" height="20"/>
		</defs>
		<clipPath id="SVGID_2_">
			<use xlink:href="#SVGID_1_"  style="overflow:visible;"/>
		</clipPath>
		<g class="st0">
			<path class="st1" d="M16.4,4.3v-1c0-0.6-0.2-1.1-0.6-1.6c-0.4-0.4-1-0.7-1.5-0.7c-0.6,0-1.2,0.2-1.6,0.7S12,2.7,12,3.3v0.9H7.8
				V3.3c0-0.6-0.2-1.1-0.6-1.6C6.7,1.3,6.2,1,5.6,1C5,1,4.4,1.2,4,1.7s-0.7,1-0.7,1.6v1.1C2.4,4.5,1.5,5,0.9,5.8
				C0.3,6.5,0,7.5,0,8.4v7.3c0,1.1,0.5,2.2,1.2,2.9c0.8,0.8,1.8,1.2,2.9,1.2h11.6c0.5,0,1.1-0.1,1.6-0.3c0.5-0.2,1-0.5,1.4-0.9
				c0.4-0.4,0.7-0.8,0.9-1.4c0.2-0.5,0.3-1.1,0.3-1.6V8.4c0-1-0.4-2-1-2.8C18.3,4.9,17.4,4.4,16.4,4.3z M12.8,5V3.3
				c0-0.4,0.1-0.7,0.4-1c0.3-0.3,0.6-0.4,1-0.4c0.4,0,0.7,0.2,1,0.4c0.2,0.3,0.4,0.6,0.4,1v3.4c0,0.4-0.1,0.7-0.4,1
				c-0.2,0.3-0.6,0.4-1,0.4c-0.4,0-0.7-0.1-1-0.4c-0.3-0.3-0.4-0.6-0.4-1V5z M4.2,5V3.3c0-0.4,0.2-0.7,0.4-1c0.3-0.3,0.6-0.4,1-0.4
				c0.4,0,0.7,0.2,1,0.4s0.4,0.6,0.4,1v3.4c0,0.4-0.1,0.7-0.4,1C6.3,7.9,6,8.1,5.6,8.1c-0.4,0-0.7-0.2-1-0.4c-0.3-0.3-0.4-0.6-0.4-1
				V5z M19.2,15.7c0,0.9-0.4,1.7-1,2.4c-0.6,0.6-1.5,1-2.4,1H4.2c-0.9,0-1.7-0.4-2.4-1c-0.6-0.6-1-1.5-1-2.4V8.4
				c0-0.7,0.3-1.5,0.7-2.1c0.5-0.6,1.1-1,1.8-1.2v1.5c0,0.6,0.2,1.2,0.7,1.6s1,0.7,1.6,0.7c0.6,0,1.1-0.3,1.5-0.7
				c0.4-0.4,0.6-1,0.6-1.6V5H12v1.7c0,0.6,0.2,1.2,0.7,1.6s1,0.7,1.6,0.7c0.6,0,1.1-0.3,1.5-0.7c0.4-0.4,0.6-1,0.6-1.6V5.1
				c0.8,0.1,1.5,0.6,2,1.2c0.5,0.6,0.8,1.4,0.8,2.2V15.7z"/>
			<path class="st1" d="M5.9,9.5H4v1.8h1.8V9.5z"/>
			<path class="st1" d="M9.2,9.5H7.4v1.8h1.8V9.5z"/>
			<path class="st1" d="M12.6,9.5h-1.8v1.8h1.8V9.5z"/>
			<path class="st1" d="M16,9.5h-1.8v1.8H16V9.5z"/>
			<path class="st1" d="M5.9,12.5H4v1.8h1.8V12.5z"/>
			<path class="st1" d="M9.2,12.5H7.4v1.8h1.8V12.5z"/>
			<path class="st1" d="M12.6,12.5h-1.8v1.8h1.8V12.5z"/>
			<path class="st1" d="M16,12.5h-1.8v1.8H16V12.5z"/>
			<path class="st1" d="M5.9,15.4H4v1.8h1.8V15.4z"/>
			<path class="st1" d="M9.2,15.4H7.4v1.8h1.8V15.4z"/>
			<path class="st1" d="M12.6,15.4h-1.8v1.8h1.8V15.4z"/>
			<path class="st1" d="M16,15.4h-1.8v1.8H16V15.4z"/>
		</g>
	</g>
</g>
</svg>
