<svg width="41" height="41" viewBox="0 0 41 41" fill="none" xmlns="http://www.w3.org/2000/svg">
<g clip-path="url(#clip0_4062_59042)">
<path d="M29.4322 1.5C27.7452 1.5 26.4131 2.02427 25.1129 3.20019C23.9246 4.27515 22.7052 5.91398 20.9273 8.83282C19.1487 5.91398 17.93 4.27515 16.7417 3.20019C15.4415 2.02427 14.1094 1.5 12.4225 1.5C9.1673 1.5 6.51954 4.33961 6.51954 7.8301C6.51765 9.1905 6.94071 10.5175 7.72963 11.6258L7.76381 11.6748H12.4147V11.5583V11.4417C10.6586 11.4417 9.23022 9.82155 9.23022 7.83087C9.23022 5.84019 10.6694 4.21845 12.4225 4.21845C14.1933 4.21845 15.4446 4.91748 19.2574 11.3377L19.4547 11.6748H22.3906L22.5964 11.3384C26.41 4.92058 27.6613 4.21845 29.4314 4.21845C31.1875 4.21845 32.6158 5.83864 32.6158 7.8301C32.6158 9.82155 31.1875 11.4417 29.4314 11.4417V11.6748H34.0916L34.1258 11.6258C34.9144 10.5174 35.3372 9.19042 35.3351 7.8301C35.3351 4.33961 32.6873 1.5 29.4322 1.5Z" fill="#EF3D3B"/>
<path d="M37.0831 11.4414H4.77239C3.75311 11.4426 2.77592 11.8481 2.05517 12.5688C1.33442 13.2896 0.928968 14.2668 0.927734 15.2861V22.7424C0.928146 23.1027 1.07148 23.4482 1.3263 23.703C1.58111 23.9579 1.9266 24.1012 2.28696 24.1016H3.41317V35.1696C3.4144 36.1889 3.81986 37.166 4.54061 37.8868C5.26135 38.6075 6.23854 39.013 7.25783 39.0142H34.5976C35.6169 39.013 36.5941 38.6075 37.3149 37.8868C38.0356 37.166 38.4411 36.1889 38.4423 35.1696V24.1016H39.5685C39.9289 24.1012 40.2744 23.9579 40.5292 23.703C40.784 23.4482 40.9273 23.1027 40.9277 22.7424V15.2861C40.9265 14.2668 40.521 13.2896 39.8003 12.5688C39.0796 11.8481 38.1024 11.4426 37.0831 11.4414V11.4414ZM34.5976 36.2958H26.0151V24.1016H35.7239V35.1696C35.7236 35.4682 35.6049 35.7545 35.3938 35.9657C35.1826 36.1768 34.8963 36.2956 34.5976 36.2958V36.2958ZM38.2093 15.2861V21.3832H26.0151V14.1599H37.0831C37.3817 14.1601 37.668 14.2788 37.8792 14.4899C38.0904 14.7011 38.2091 14.9874 38.2093 15.2861ZM23.2967 14.1599V36.2958H18.5588V14.1599H23.2967ZM15.8404 24.1016V36.2958H7.25783C6.9592 36.2956 6.67287 36.1768 6.46171 35.9657C6.25054 35.7545 6.13182 35.4682 6.13162 35.1696V24.1016H15.8404ZM3.64618 15.2861C3.64639 14.9874 3.76511 14.7011 3.97627 14.4899C4.18743 14.2788 4.47377 14.1601 4.77239 14.1599H15.8404V21.3832H3.64618V15.2861Z" fill="#006DC9"/>
</g>
<defs>
<clipPath id="clip0_4062_59042">
<rect width="40" height="40" fill="white" transform="translate(0.927734 0.5)"/>
</clipPath>
</defs>
</svg>
