<?xml version="1.0" encoding="utf-8"?>
<!-- Generator: Adobe Illustrator 25.4.1, SVG Export Plug-In . SVG Version: 6.00 Build 0)  -->
<svg version="1.1" id="圖層_1" xmlns="http://www.w3.org/2000/svg" xmlns:xlink="http://www.w3.org/1999/xlink" x="0px" y="0px"
	 viewBox="0 0 35 35" style="enable-background:new 0 0 35 35;" xml:space="preserve">
<style type="text/css">
	.st0{fill:#EF3D3B;}
	.st1{fill:#006DC9;}
	.st2{fill:none;stroke:#006DC9;stroke-width:0.75;stroke-miterlimit:10;}
</style>
<path class="st0" d="M25.1,11.7h-3.8v-0.6c0,0-0.2-0.3-0.3-0.4v-0.3c0-0.4-0.1-0.8-0.3-1.2c-0.1-0.3-0.2-0.6-0.3-0.8V7.7L20,7.4
	c-0.6-0.3-1.2-0.6-1.9-0.8l-0.4-0.1l-0.2,0.3C17,7.4,16.6,8,16,8.4c-0.7,0.7-1.2,1.3-1.7,2l-0.1,0.1l-0.3,1.1H9.6
	c-0.3,0-0.7,0.1-0.8,0.3c-0.2,0.2-0.2,0.6-0.2,0.9l0.8,3.7c0.1,0.7,0.6,1,1.2,1h1.8v0.1l2.3,3.5l0.9,0.4c0.1,0.3,1,2.1,1,2.1H17
	c0,0.1,0.1,0.4,0.1,0.4h2.2v-2.6c0.1-0.2,1.8-3.1,2.3-4h2.6c0.7,0,1.1-0.4,1.2-1.1v0.1l0.9-3.8v-0.1C26.3,12.3,25.8,11.8,25.1,11.7z
	 M15.4,11.1c0.4-0.7,1-1.2,1.6-1.7c0.4-0.4,0.8-0.9,1.2-1.3c0.2,0.1,0.6,0.2,0.8,0.3v0.3L19.1,9c0.1,0.2,0.2,0.4,0.3,0.7v0.1v0.1
	c0.1,0.1,0.1,0.3,0.2,0.6v0.9c0,0,0.2,0.3,0.3,0.4v0.1c-0.6,0.1-1,0.3-1.2,0.8v-0.1l-0.9,1.2h-1.1c-0.2-0.4-0.9-1.3-0.9-1.3v0.1
	c-0.1-0.3-0.3-0.6-0.7-0.7C15.3,11.6,15.4,11.3,15.4,11.1z M10.6,16.4c0-0.2-0.6-2.7-0.7-3.3h4.7l0.1,0.1c0,0,0.6,0.7,0.8,1.1
	c0,0.2-0.1,0.3-0.1,0.3s-0.9,1.5-1,1.6L10.6,16.4z M18,21.4v1.1h-0.6c-0.2-0.4-0.8-1.8-0.8-1.8s-0.8-0.3-1-0.4
	c-0.1-0.2-1.2-1.8-1.7-2.5h0.4c0.3,0,0.7-0.1,1-0.3l0.1-0.1v-0.1l1.1-1.7l0.2-0.4c0.2,0,0.8,0,1.1,0l1.3,2.1h0.1
	c0.2,0.2,0.4,0.3,0.8,0.3L18,21.4z M24,16.4h-3.7c-0.1-0.1-1.2-1.9-1.2-1.9c0.3-0.4,0.8-1.1,0.8-1.1c0-0.1,0.1-0.1,0.1-0.1h4.7
	C24.7,13.7,24.1,16.2,24,16.4z"/>
<path class="st1" d="M26.3,35H8.7c-2.1,0-3.8-1.8-3.8-3.8V3.8C4.9,1.6,6.7,0,8.7,0h17.7c2.1,0,3.8,1.8,3.8,3.8v27.3
	C30.1,33.2,28.5,35,26.3,35z M8.7,2.5C8,2.5,7.4,3.1,7.4,3.8v27.3c0,0.8,0.6,1.3,1.3,1.3h17.7c0.8,0,1.3-0.6,1.3-1.3V3.8
	c0-0.8-0.6-1.3-1.3-1.3H8.7z"/>
<circle class="st2" cx="17.5" cy="29.4" r="1.7"/>
</svg>
