<svg width="820" height="551" viewBox="0 0 820 551" fill="none" xmlns="http://www.w3.org/2000/svg">
<path d="M410 301L410 30" stroke="#424242" stroke-linecap="round" stroke-linejoin="round"/>
<path d="M560 243L560 123" stroke="#424242" stroke-linecap="round" stroke-linejoin="round"/>
<path d="M410 183L698 183" stroke="#424242" stroke-linecap="round" stroke-linejoin="round"/>
<path d="M138 230L285 230" stroke="#424242" stroke-linecap="round" stroke-linejoin="round"/>
<path d="M560 123L707 123" stroke="#424242" stroke-linecap="round" stroke-linejoin="round"/>
<path d="M560 243L707 243" stroke="#424242" stroke-linecap="round" stroke-linejoin="round"/>
<rect x="285" y="200" width="250" height="60" rx="5" fill="#002154"/>
<path d="M400.007 223.932H395.92V224.749H394.303V223.932H392.58V222.71H394.303V221.761H395.92V222.71H400.007V223.932ZM391.745 223.932H390.075V224.872H388.432V223.932H384.292V222.71H388.432V221.761H390.075V222.71H391.745V223.932ZM400.007 237.238H384.336V236.122H391.367V235.296H385.162V234.25H391.367V233.494H385.698V228.994H391.367V228.273H384.477V227.157H391.367V226.454C390.582 226.472 389.785 226.48 388.977 226.48C387.91 226.48 386.926 226.466 386.023 226.437L385.716 225.355C388.136 225.385 389.545 225.399 389.943 225.399C392.744 225.399 395.398 225.194 397.906 224.784L398.662 225.848C396.682 226.135 394.786 226.319 392.976 226.401V227.157H399.831V228.273H392.976V228.994H398.662V233.494H392.976V234.25H399.216V235.296H392.976V236.122H400.007V237.238ZM397.098 230.778V230.04H392.976V230.778H397.098ZM391.367 230.778V230.04H387.263V230.778H391.367ZM397.133 232.466V231.71H392.976V232.466H397.133ZM391.367 232.466V231.71H387.263V232.466H391.367ZM417.937 232.633H416.68V234.918H410.879V236.034C410.879 236.386 410.765 236.682 410.536 236.922C410.313 237.168 410.053 237.314 409.754 237.361C409.461 237.408 408.564 237.432 407.064 237.432L406.581 236.069L408.989 236.017C409.054 236.017 409.121 235.981 409.191 235.911C409.262 235.835 409.297 235.762 409.297 235.691V234.918H403.373V233.714H409.297V232.633H402.274V231.42H409.297V230.436H403.373V229.231H409.297V228.273H403.681V224.907H409.297V223.932H402.424V222.692H409.297V221.682H410.879V222.692H417.726V223.932H410.879V224.907H416.513V228.273H410.879V229.231H416.68V231.42H417.937V232.633ZM414.878 227.104V226.059H410.879V227.104H414.878ZM409.297 227.104V226.059H405.298V227.104H409.297ZM415.098 231.42V230.436H410.879V231.42H415.098ZM415.098 233.714V232.633H410.879V233.714H415.098ZM435.884 230.831H423.966V235.331C425.067 235.097 426.321 234.719 427.728 234.197L427.842 235.814C425.914 236.477 424.095 236.998 422.384 237.379L421.936 236.052C422.199 235.894 422.331 235.677 422.331 235.401V230.831H420.222V229.337H422.727V222.007H434.82V223.448H424.379V224.494H433.871V225.883H424.379V226.946H433.871V228.273H424.379V229.337H435.884V230.831ZM436.024 235.981L435.251 237.476C433.095 236.966 431.41 236.31 430.197 235.507C428.984 234.704 427.851 233.535 426.796 232L428.202 231.227C428.688 232 429.292 232.75 430.013 233.477C431.313 232.756 432.389 231.994 433.238 231.191L434.46 232.237C433.353 233.181 432.327 233.91 431.384 234.426C432.474 235.1 434.021 235.618 436.024 235.981Z" fill="white"/>
<rect x="285" y="100" width="250" height="60" rx="5" fill="#002154"/>
<path d="M400.007 123.932H395.92V124.749H394.303V123.932H392.58V122.71H394.303V121.761H395.92V122.71H400.007V123.932ZM391.745 123.932H390.075V124.872H388.432V123.932H384.292V122.71H388.432V121.761H390.075V122.71H391.745V123.932ZM400.007 137.238H384.336V136.122H391.367V135.296H385.162V134.25H391.367V133.494H385.698V128.994H391.367V128.273H384.477V127.157H391.367V126.454C390.582 126.472 389.785 126.48 388.977 126.48C387.91 126.48 386.926 126.466 386.023 126.437L385.716 125.355C388.136 125.385 389.545 125.399 389.943 125.399C392.744 125.399 395.398 125.194 397.906 124.784L398.662 125.848C396.682 126.135 394.786 126.319 392.976 126.401V127.157H399.831V128.273H392.976V128.994H398.662V133.494H392.976V134.25H399.216V135.296H392.976V136.122H400.007V137.238ZM397.098 130.778V130.04H392.976V130.778H397.098ZM391.367 130.778V130.04H387.263V130.778H391.367ZM397.133 132.466V131.71H392.976V132.466H397.133ZM391.367 132.466V131.71H387.263V132.466H391.367ZM417.937 132.633H416.68V134.918H410.879V136.034C410.879 136.386 410.765 136.682 410.536 136.922C410.313 137.168 410.053 137.314 409.754 137.361C409.461 137.408 408.564 137.432 407.064 137.432L406.581 136.069L408.989 136.017C409.054 136.017 409.121 135.981 409.191 135.911C409.262 135.835 409.297 135.762 409.297 135.691V134.918H403.373V133.714H409.297V132.633H402.274V131.42H409.297V130.436H403.373V129.231H409.297V128.273H403.681V124.907H409.297V123.932H402.424V122.692H409.297V121.682H410.879V122.692H417.726V123.932H410.879V124.907H416.513V128.273H410.879V129.231H416.68V131.42H417.937V132.633ZM414.878 127.104V126.059H410.879V127.104H414.878ZM409.297 127.104V126.059H405.298V127.104H409.297ZM415.098 131.42V130.436H410.879V131.42H415.098ZM415.098 133.714V132.633H410.879V133.714H415.098ZM436.174 124.837L435.541 126.261C434.07 125.897 432.582 125.405 431.076 124.784V125.452H425.196V124.749C423.808 125.364 422.337 125.88 420.784 126.296L419.993 124.995C423.538 124.081 426.154 122.912 427.842 121.488L429.6 121.919C429.477 122.071 429.368 122.186 429.274 122.262C430.944 123.316 433.244 124.175 436.174 124.837ZM429.819 124.204C428.853 123.665 428.264 123.331 428.053 123.202C427.561 123.571 426.998 123.905 426.365 124.204H429.819ZM434.53 130.831H421.681V126.182H434.53V130.831ZM432.948 129.574V127.465H428.879V129.574H432.948ZM432.263 128.309C431.864 128.643 431.36 128.991 430.751 129.354L429.635 128.599C430.338 128.153 430.83 127.828 431.111 127.623L432.263 128.309ZM427.297 129.574V127.465H423.245V129.574H427.297ZM426.506 128.687L425.372 129.407C424.938 129.044 424.44 128.689 423.878 128.344L424.994 127.588C425.363 127.793 425.867 128.159 426.506 128.687ZM433.757 137.379H432.175V136.737H424.115V137.379H422.472V131.622H433.757V137.379ZM432.175 133.582V132.844H424.115V133.582H432.175ZM432.175 135.489V134.698H424.115V135.489H432.175Z" fill="white"/>
<rect x="285" width="250" height="60" rx="5" fill="#002154"/>
<path d="M390.163 35.9023C390.163 36.916 389.574 37.4229 388.396 37.4229C388.139 37.4229 387.869 37.4082 387.588 37.3789L386.999 35.7969C387.216 35.8086 387.676 35.8145 388.379 35.8145C388.549 35.8145 388.634 35.7324 388.634 35.5684V31.2266C388.083 31.918 387.591 32.4951 387.157 32.958L386.621 32.0527C386.439 34.5723 386.056 36.3799 385.47 37.4756L384.169 36.4648C384.796 35.0762 385.109 33.0898 385.109 30.5059V21.9893H390.163V35.9023ZM388.634 27.21V23.5537H386.639V25.5928L387.553 24.9248C388.027 25.7627 388.388 26.5244 388.634 27.21ZM388.634 28.6865V27.6582L387.57 28.458C387.412 27.7725 387.102 26.9902 386.639 26.1113V31.1562C387.383 30.377 388.048 29.5537 388.634 28.6865ZM399.901 28.1504H397.344C396.992 28.1504 396.705 28.0244 396.482 27.7725C396.266 27.5205 396.157 27.2305 396.157 26.9023V23.6504H393.652V24.459C393.652 26.2578 393.072 27.6611 391.912 28.6689L390.594 27.6406C391.566 26.9141 392.053 25.8359 392.053 24.4062V22.1211H397.722V26.3838C397.722 26.5771 397.818 26.6738 398.012 26.6738H399.901V28.1504ZM400.086 36.1045L399.286 37.4756C397.792 37.1006 396.4 36.4326 395.111 35.4717C394.074 36.2451 392.791 36.9131 391.262 37.4756L390.383 36.1045C391.678 35.7236 392.841 35.1729 393.872 34.4521C392.987 33.5146 392.255 32.2461 391.675 30.6465H390.884V29.1348H398.873V30.6465C398.111 32.2402 397.273 33.4824 396.359 34.373C397.385 35.1055 398.627 35.6826 400.086 36.1045ZM397.054 30.6465H393.371C393.863 31.8477 394.467 32.7676 395.182 33.4062C395.99 32.5039 396.614 31.584 397.054 30.6465ZM418.007 35.6035L417.233 36.9482C414.403 35.8936 412.285 34.5254 410.879 32.8438V37.3789H409.279V32.8613C407.826 34.4727 405.679 35.8525 402.837 37.001L402.063 35.6035C404.823 34.6016 406.88 33.333 408.233 31.7979H403.698V25.54H409.279V24.4941H402.406V23.0352H409.279V21.6816H410.879V23.0352H417.726V24.4941H410.879V25.54H416.46V31.7979H411.89C413.167 33.2217 415.206 34.4902 418.007 35.6035ZM414.86 28.0537V26.8848H410.879V28.0537H414.86ZM409.279 28.0537V26.8848H405.298V28.0537H409.279ZM414.86 30.4707V29.3545H410.879V30.4707H414.86ZM409.279 30.4707V29.3545H405.298V30.4707H409.279ZM436.174 24.8369L435.541 26.2607C434.07 25.8975 432.582 25.4053 431.076 24.7842V25.4521H425.196V24.749C423.808 25.3643 422.337 25.8799 420.784 26.2959L419.993 24.9951C423.538 24.0811 426.154 22.9121 427.842 21.4883L429.6 21.9189C429.477 22.0713 429.368 22.1855 429.274 22.2617C430.944 23.3164 433.244 24.1748 436.174 24.8369ZM429.819 24.2041C428.853 23.665 428.264 23.3311 428.053 23.2021C427.561 23.5713 426.998 23.9053 426.365 24.2041H429.819ZM434.53 30.8311H421.681V26.1816H434.53V30.8311ZM432.948 29.5742V27.4648H428.879V29.5742H432.948ZM432.263 28.3086C431.864 28.6426 431.36 28.9912 430.751 29.3545L429.635 28.5986C430.338 28.1533 430.83 27.8281 431.111 27.623L432.263 28.3086ZM427.297 29.5742V27.4648H423.245V29.5742H427.297ZM426.506 28.6865L425.372 29.4072C424.938 29.0439 424.44 28.6895 423.878 28.3438L424.994 27.5879C425.363 27.793 425.867 28.1592 426.506 28.6865ZM433.757 37.3789H432.175V36.7373H424.115V37.3789H422.472V31.6221H433.757V37.3789ZM432.175 33.582V32.8438H424.115V33.582H432.175ZM432.175 35.4893V34.6982H424.115V35.4893H432.175Z" fill="white"/>
<rect x="285" y="300" width="250" height="60" rx="5" fill="#002154"/>
<path d="M399.11 331.35H390.813V322.877H393.011C393.228 322.514 393.43 322.08 393.617 321.576L395.261 321.884C395.214 322.06 395.062 322.391 394.804 322.877H399.11V331.35ZM397.546 329.97V324.239H392.396V329.97H397.546ZM397.396 328.546L396.518 329.513C396.09 329.062 395.765 328.728 395.542 328.511C395.108 329.062 394.719 329.498 394.373 329.82L393.459 329.012C393.834 328.666 394.218 328.221 394.61 327.676C394.423 327.488 394.285 327.356 394.197 327.28C393.992 327.538 393.685 327.887 393.274 328.326L392.448 327.465C392.694 327.23 392.964 326.932 393.257 326.568C393.069 326.422 392.829 326.246 392.536 326.041L393.354 325.074C393.477 325.145 393.679 325.288 393.96 325.505C394.101 325.247 394.256 324.916 394.426 324.512L395.489 325.074L394.9 326.208C395.129 326.384 395.272 326.504 395.331 326.568C395.63 326.152 395.899 325.64 396.14 325.03L397.186 325.593C396.922 326.243 396.62 326.838 396.28 327.377L397.396 328.546ZM390.471 331.982L389.17 332.554C389.111 332.237 389.047 331.95 388.977 331.692C387.225 332.138 385.76 332.439 384.582 332.598L384.187 331.35C385.142 330.518 386.097 329.281 387.052 327.641C386.179 327.805 385.361 327.919 384.6 327.983L384.406 326.568C385.438 325.338 386.308 323.686 387.017 321.611L388.432 322.262C387.816 323.92 387.099 325.247 386.278 326.243C386.823 326.202 387.38 326.117 387.948 325.988C388.124 325.66 388.461 324.957 388.959 323.879L390.418 324.547C389.035 327.383 387.69 329.489 386.384 330.866C387.022 330.761 387.749 330.588 388.563 330.348C388.505 330.102 388.391 329.782 388.221 329.39L389.442 328.871C390.005 330.242 390.348 331.279 390.471 331.982ZM396.878 333.749L395.586 334.338C395.334 333.512 395.05 332.8 394.733 332.202L396.017 331.71C396.286 332.19 396.573 332.87 396.878 333.749ZM397.906 334.83C397.836 335.604 397.73 336.146 397.59 336.456C397.449 336.767 397.241 336.986 396.966 337.115C396.69 337.244 396.148 337.309 395.34 337.309C394.83 337.309 394.411 337.297 394.083 337.273C393.755 337.25 393.468 337.118 393.222 336.878C392.981 336.644 392.861 336.339 392.861 335.964V332.123H394.391V335.472C394.391 335.659 394.452 335.782 394.575 335.841C394.698 335.899 395.038 335.929 395.595 335.929C395.894 335.929 396.093 335.885 396.192 335.797C396.292 335.709 396.368 335.536 396.421 335.278C396.474 335.021 396.5 334.707 396.5 334.338L397.906 334.83ZM392.448 332.668C392.296 334.221 391.924 335.653 391.332 336.966L390.058 336.263C390.55 335.173 390.91 333.799 391.139 332.141L392.448 332.668ZM400.104 335.727L398.838 336.5C398.551 335.34 398.108 334.15 397.511 332.932L398.768 332.176C399.494 333.734 399.939 334.918 400.104 335.727ZM390.304 335.208L389.135 335.621C389.041 334.842 388.874 333.995 388.634 333.081L389.75 332.791C390.055 333.652 390.239 334.458 390.304 335.208ZM386.384 333.354C386.231 334.824 385.938 336.178 385.505 337.414L384.134 336.772C384.579 335.53 384.872 334.244 385.013 332.914L386.384 333.354ZM388.528 336.605L387.14 336.878C387.081 335.296 386.961 334.127 386.779 333.371L388.08 333.081C388.338 334.446 388.487 335.621 388.528 336.605ZM408.471 324.547C407.381 326.914 406.06 328.968 404.507 330.708C405.21 330.597 405.89 330.438 406.546 330.233C406.481 329.917 406.379 329.624 406.238 329.354L407.478 328.871C407.899 329.82 408.195 330.846 408.365 331.947L407.117 332.396C407.07 332.144 407.018 331.886 406.959 331.622C405.377 332.021 403.918 332.325 402.582 332.536L402.204 331.227C403.212 330.342 404.208 329.082 405.192 327.447C404.325 327.623 403.479 327.761 402.652 327.86L402.274 326.472C403.382 325.212 404.272 323.574 404.946 321.559L406.458 322.121C405.825 323.727 405.087 325.068 404.243 326.146C404.718 326.1 405.354 325.968 406.15 325.751C406.391 325.353 406.701 324.729 407.082 323.879L408.471 324.547ZM417.664 323.501H408.559V321.972H417.664V323.501ZM414.676 330.198L413.261 330.831C412.64 329.542 411.925 328.341 411.116 327.228C411.808 326.36 412.443 325.3 413.023 324.046L414.5 324.617C413.967 325.607 413.445 326.472 412.936 327.21C413.85 328.663 414.43 329.659 414.676 330.198ZM417.743 330.163L416.319 330.831C415.769 329.694 415.071 328.525 414.228 327.324C415.036 326.152 415.678 325.065 416.152 324.063L417.523 324.67C417.289 325.279 416.797 326.164 416.047 327.324C416.715 328.314 417.28 329.261 417.743 330.163ZM411.582 330.181L410.22 330.796C409.657 329.7 408.942 328.522 408.075 327.263C408.89 326.132 409.531 325.065 410 324.063L411.459 324.617C411.148 325.338 410.615 326.231 409.859 327.298C410.727 328.622 411.301 329.583 411.582 330.181ZM417.919 337.054H408.304V335.524H412.338V332.738H408.831V331.227H417.4V332.738H413.964V335.524H417.919V337.054ZM408.286 335.006L407.064 335.313C406.906 334.335 406.751 333.597 406.599 333.099L407.803 332.791C408.008 333.4 408.169 334.139 408.286 335.006ZM404.331 333.318C404.173 334.695 403.88 336.081 403.452 337.476L402.116 336.825C402.579 335.261 402.866 333.983 402.978 332.993L404.331 333.318ZM406.458 336.553L405.069 336.896C405.081 336.11 404.961 334.924 404.709 333.336L406.001 333.028C406.288 334.282 406.44 335.457 406.458 336.553ZM435.901 337.001H425.592V335.542H430.013V333.767H426.216V332.343H430.013V330.796H426.33V322.156H435.216V330.796H431.586V332.343H435.471V333.767H431.586V335.542H435.901V337.001ZM433.651 325.733V323.58H431.586V325.733H433.651ZM430.013 325.733V323.58H427.912V325.733H430.013ZM433.651 329.372V327.034H431.586V329.372H433.651ZM430.013 329.372V327.034H427.912V329.372H430.013ZM425.662 333.564C424.285 334.414 422.615 335.278 420.652 336.157L420.099 334.628C420.532 334.458 421.247 334.133 422.243 333.652V329.17H420.512V327.676H422.243V324.116H420.239V322.675H425.627V324.116H423.79V327.676H425.354V329.17H423.79V332.826C424.405 332.568 425.012 332.252 425.609 331.877L425.662 333.564Z" fill="white"/>
<path d="M410 396L410 360" stroke="#424242" stroke-linecap="round" stroke-linejoin="round"/>
<path d="M57 396L762 396" stroke="#424242" stroke-linecap="round" stroke-linejoin="round"/>
<path d="M57 432L57 396" stroke="#424242" stroke-linecap="round" stroke-linejoin="round"/>
<path d="M198 432L198 396" stroke="#424242" stroke-linecap="round" stroke-linejoin="round"/>
<path d="M339 432L339 396" stroke="#424242" stroke-linecap="round" stroke-linejoin="round"/>
<path d="M481 432L481 396" stroke="#424242" stroke-linecap="round" stroke-linejoin="round"/>
<path d="M621 432L621 396" stroke="#424242" stroke-linecap="round" stroke-linejoin="round"/>
<path d="M762 432L762 396" stroke="#424242" stroke-linecap="round" stroke-linejoin="round"/>
<rect x="0.5" y="432.5" width="114" height="118" rx="4.5" fill="white"/>
<path d="M0 437C0 434.239 2.23858 432 5 432H110C112.761 432 115 434.239 115 437V467H0V437Z" fill="#002154"/>
<path d="M39.2275 442.57C38.3604 443.039 37.4141 443.423 36.3887 443.722L36.3359 443.871C37.3906 444.281 38.3486 444.747 39.21 445.269L38.4014 446.385C37.6572 445.91 36.7637 445.462 35.7207 445.04C35.0293 445.749 34.0977 446.253 32.9258 446.552L32.0996 445.233C33.2949 445.005 34.124 444.633 34.5869 444.117C35.0557 443.596 35.29 442.611 35.29 441.164H36.7666C36.7432 441.627 36.7109 442.005 36.6699 442.298C37.3203 442.087 37.915 441.817 38.4541 441.489L39.2275 442.57ZM47.208 445.471L46.3555 446.604C45.5352 446.118 44.4746 445.632 43.1738 445.146C42.4297 445.878 41.416 446.347 40.1328 446.552L39.5 445.233C40.7598 445.028 41.6035 444.68 42.0312 444.188C42.4648 443.689 42.6816 442.702 42.6816 441.226L44.1406 441.261C44.1582 441.53 44.1406 441.914 44.0879 442.412C44.7031 442.213 45.3652 441.888 46.0742 441.437L46.8828 442.5C45.7168 443.162 44.7148 443.607 43.877 443.836L43.7803 443.994C45.0928 444.434 46.2354 444.926 47.208 445.471ZM34.6396 443.458L33.418 444.1C33.1016 443.396 32.6855 442.743 32.1699 442.14L33.3828 441.472C33.9277 442.128 34.3467 442.79 34.6396 443.458ZM42.0752 443.599L40.8184 444.17C40.5781 443.473 40.2178 442.796 39.7373 442.14L40.9941 441.586C41.4688 442.219 41.8291 442.89 42.0752 443.599ZM47.1113 449.487H45.5117V448.099H33.4883V449.487H31.9414V446.763H47.1113V449.487ZM46.2676 456.932H44.7031V456.378H34.3145V456.932H32.7324V452.722H37.9883C38.1465 452.493 38.2842 452.235 38.4014 451.948H34.3145V448.872H44.5186V451.948H40.2559C40.1445 452.212 40.0068 452.47 39.8428 452.722H46.2676V456.932ZM43.0244 450.779V450.059H35.8262V450.779H43.0244ZM44.7031 455.174V453.952H34.3145V455.174H44.7031ZM65.4365 443.563H59.8906C59.6152 443.985 59.2754 444.41 58.8711 444.838L57.4121 444.064C58.4023 443.016 59.1025 441.996 59.5127 441.006L61.1387 441.472C60.9863 441.782 60.8545 442.028 60.7432 442.21H65.4365V443.563ZM57.4121 443.563H52.6572C52.1123 444.19 51.4473 444.809 50.6621 445.418L49.6162 444.117C50.999 443.191 51.9102 442.172 52.3496 441.059L53.9756 441.489C53.8936 441.712 53.7734 441.952 53.6152 442.21H57.4121V443.563ZM55.751 445.11L53.9932 445.436C53.835 445.096 53.583 444.674 53.2373 444.17L54.9424 443.818C55.165 444.082 55.4346 444.513 55.751 445.11ZM63.0283 445.216L61.2969 445.488C61.1562 445.072 60.9277 444.604 60.6113 444.082L62.3604 443.889C62.5947 444.27 62.8174 444.712 63.0283 445.216ZM64.9883 448.907H63.4062V447.176H51.7256V448.907H50.1348V445.849H56.6211C56.5566 445.679 56.4102 445.409 56.1816 445.04L58.0186 444.75C58.1826 444.99 58.376 445.356 58.5986 445.849H64.9883V448.907ZM63.3535 456.158H53.791V456.879H52.2266V448.081H62.7559V451.518H53.791V452.476H63.3535V456.158ZM61.1562 450.349V449.303H53.791V450.349H61.1562ZM61.7451 454.937V453.68H53.791V454.937H61.7451ZM82.9707 446.121H81.3887V443.994H69.7607V446.191H68.1523V442.553H74.6738C74.3926 442.084 74.1465 441.706 73.9355 441.419L75.5527 441.023C75.793 441.381 76.1064 441.891 76.4932 442.553H82.9707V446.121ZM83.4189 456.413H67.7744V455.007H74.7793V453.337H68.8203V451.913H74.7793V450.454C73.3203 450.56 71.5273 450.604 69.4004 450.586L69.0928 449.232C70.3525 448.904 71.6592 448.058 73.0127 446.692H70.2969V445.286H80.8262V446.692H75.2275C74.1904 447.776 73.1885 448.6 72.2217 449.162C73.9854 449.15 76.1709 449.001 78.7783 448.714C78.6143 448.556 78.2129 448.26 77.5742 447.826L78.8135 446.947C80.583 448.096 81.8955 449.145 82.751 450.094L81.5996 451.157C81.2246 450.747 80.8057 450.34 80.3428 449.936C79.0537 450.07 77.7383 450.19 76.3965 450.296V451.913H82.4258V453.337H76.3965V455.007H83.4189V456.413Z" fill="white"/>
<path d="M40.4766 478.781H36.1875L36.8125 479.297C36.599 479.896 36.3047 480.542 35.9297 481.234H39.5V489.633C39.5 489.971 39.3854 490.255 39.1562 490.484C38.9271 490.714 38.4323 490.828 37.6719 490.828C37.4688 490.828 37.2396 490.818 36.9844 490.797L36.7031 489.969L38.3125 489.938C38.5625 489.938 38.6875 489.81 38.6875 489.555V482H35.4688V483.406C35.4688 483.672 35.612 483.805 35.8984 483.805H37.9609V484.562H35.5938C35.3698 484.562 35.1536 484.479 34.9453 484.312C34.737 484.141 34.6328 483.951 34.6328 483.742V482H32.4766C32.4245 482.792 32.125 483.484 31.5781 484.078C31.0365 484.667 30.3333 485.068 29.4688 485.281L29.0703 484.516C30.6693 484.13 31.5208 483.292 31.625 482H28.4453V490.812H27.6094V481.234H31.0859C30.8203 480.464 30.5312 479.812 30.2188 479.281L30.7344 478.781H26.6172V478H33.1328C33.0026 477.651 32.8255 477.279 32.6016 476.883L33.4531 476.641C33.7031 477.094 33.8906 477.547 34.0156 478H40.4766V478.781ZM36.0469 478.781H30.9844C31.4167 479.766 31.7474 480.583 31.9766 481.234H35.0547C35.4193 480.5 35.75 479.682 36.0469 478.781ZM36.7812 488.977H30.3672V485.633H36.7812V488.977ZM35.9141 488.195V486.398H31.1953V488.195H35.9141ZM54.4922 481.969H45.0703V477.219H54.4922V481.969ZM53.6562 481.172V478.031H45.9141V481.172H53.6562ZM55.7734 490.797H54.9219V489.664H51.3594V490.797H50.5078V483.789H55.7734V490.797ZM54.9219 488.852V484.625H51.3594V488.852H54.9219ZM48.6172 490.797H47.7891V489.664H44.25V490.797H43.3906V483.789H48.6172V490.797ZM47.7734 488.852V484.625H44.25V488.852H47.7734ZM65.4375 478.672H60.9531C60.4271 479.328 59.8411 479.93 59.1953 480.477L58.5547 479.969C59.6901 479.042 60.5755 477.953 61.2109 476.703L61.9922 477.023C61.8776 477.268 61.7031 477.578 61.4688 477.953H65.4375V478.672ZM72.5078 478.688H67.3906C67.0417 479.109 66.6354 479.526 66.1719 479.938L65.5156 479.469C66.6667 478.365 67.3984 477.453 67.7109 476.734L68.4922 477.039C68.362 477.31 68.1849 477.609 67.9609 477.938H72.5078V478.688ZM70.1719 480.352L69.4688 480.625C69.1042 479.932 68.8307 479.469 68.6484 479.234L69.4062 478.961C69.7292 479.435 69.9844 479.898 70.1719 480.352ZM63.7734 480.258L63.0391 480.578C62.8464 480.193 62.5469 479.75 62.1406 479.25L62.8594 478.961C63.2448 479.404 63.5495 479.836 63.7734 480.258ZM72.125 484.031H71.3203V481.805H59.8359V484.016H59.0234V481.039H65.0547C65.0026 480.82 64.875 480.526 64.6719 480.156L65.3906 479.891C65.6094 480.24 65.7786 480.622 65.8984 481.039H72.125V484.031ZM70.6719 490.109H61.6797V490.766H60.8438V483.008H70.2031V485.758H61.6797V487.023H70.6719V490.109ZM69.375 484.992V483.758H61.6797V484.992H69.375ZM69.8516 489.344V487.789H61.6797V489.344H69.8516ZM88.5391 490.492H79.3203V489.711H83.5V487.422H79.9297V486.625H83.5V484.656H80.0625V477.219H87.8047V484.656H84.3125V486.625H87.9922V487.422H84.3125V489.711H88.5391V490.492ZM86.9844 480.516V478H84.3125V480.516H86.9844ZM83.5 480.516V478H80.875V480.516H83.5ZM86.9844 483.844V481.297H84.3125V483.844H86.9844ZM83.5 483.844V481.297H80.875V483.844H83.5ZM79.3438 487.008C78.1875 487.669 76.6771 488.469 74.8125 489.406L74.4609 488.703C75.4401 488.234 76.1823 487.852 76.6875 487.555V483.133H74.8281V482.352H76.6875V478.688H74.5703V477.938H79.3438V478.688H77.4844V482.352H79.1484V483.133H77.4844V487.117C78.0312 486.846 78.612 486.521 79.2266 486.141L79.3438 487.008ZM56.5078 503.453H53.1172V505.969H56.1719V506.75H49.2109V505.969H52.2656V503.453H48.8438V502.688H52.2656V500.852H53.1016V502.688H56.5078V503.453ZM48.1094 507.891H47.2891V505.391H45.3906C45.0833 506.75 44.5 507.706 43.6406 508.258L43.0234 507.664C43.8099 507.195 44.3151 506.438 44.5391 505.391H42.6484V504.625H47.2891V503.453H43.7891V501.219H44.6328V502.672H47.2891V500.867H48.1094V507.891ZM56.5078 509.359H49.3203C48.7422 510.057 48.0026 510.688 47.1016 511.25V513.82C48.1484 513.602 49.1979 513.31 50.25 512.945L50.5391 513.648C48.987 514.185 47.5625 514.578 46.2656 514.828L45.9453 514.109C46.1693 514.01 46.2812 513.878 46.2812 513.711V511.664C45.3021 512.216 44.2109 512.659 43.0078 512.992L42.5391 512.242C45.0443 511.576 46.9271 510.615 48.1875 509.359H42.6328V508.562H49.4531C49.3073 508.188 49.1406 507.867 48.9531 507.602L49.7891 507.344C49.9818 507.682 50.1849 508.089 50.3984 508.562H56.5078V509.359ZM56.6016 514.141L56.125 514.914C53.1875 513.82 51.2786 512.375 50.3984 510.578L51.1484 510.242C51.5651 510.966 52.0495 511.568 52.6016 512.047C53.4401 511.656 54.2839 511.065 55.1328 510.273L55.7266 510.812C55.1536 511.391 54.3516 511.979 53.3203 512.578C54.1589 513.198 55.2526 513.719 56.6016 514.141ZM62.2344 503.391L61.625 504.031C60.9792 503.161 60.138 502.297 59.1016 501.438L59.6797 500.812C60.612 501.589 61.4635 502.448 62.2344 503.391ZM71.8828 502.93H70.2031V504.961H64.3984V502.93H62.5859V502.141H64.3984V500.828H65.2109V502.141H69.3906V500.828H70.2031V502.141H71.8828V502.93ZM69.3906 504.195V502.93H65.2109V504.195H69.3906ZM61.8672 507.117L61.3047 507.758C60.6172 507.029 59.6901 506.299 58.5234 505.57L59.0859 504.914C60.013 505.461 60.9401 506.195 61.8672 507.117ZM72.5391 506.719H62.0781V505.938H72.5391V506.719ZM71.5312 512.32H63.0078V507.727H71.5312V512.32ZM70.75 509.633V508.461H67.6406V509.633H70.75ZM66.8438 509.633V508.461H63.7734V509.633H66.8438ZM70.75 511.586V510.367H67.6406V511.586H70.75ZM66.8438 511.586V510.367H63.7734V511.586H66.8438ZM61.9453 509.758C61.1484 511.742 60.2109 513.427 59.1328 514.812L58.5078 514.258C59.4818 513.003 60.4036 511.344 61.2734 509.281L61.9453 509.758ZM72.5078 514.195L72.0312 514.898C70.7448 514.19 69.4375 513.635 68.1094 513.234L68.6484 512.547C70.1745 513.057 71.4609 513.607 72.5078 514.195ZM66.2812 513.102C65.1458 513.799 63.8359 514.375 62.3516 514.828L61.8516 514.125C63.2474 513.682 64.4792 513.167 65.5469 512.578L66.2812 513.102ZM32.1094 533.844L31.375 534.125C31.3177 533.823 31.263 533.578 31.2109 533.391C29.6328 533.828 28.2031 534.164 26.9219 534.398L26.6328 533.711C27.8568 532.612 28.9193 531.333 29.8203 529.875C28.9349 530.042 27.9844 530.195 26.9688 530.336L26.7812 529.602C27.9688 528.216 28.8958 526.62 29.5625 524.812L30.3516 525.023C29.8255 526.466 29.0286 527.932 27.9609 529.422C28.6224 529.344 29.4062 529.221 30.3125 529.055C30.6458 528.555 30.9896 527.938 31.3438 527.203L32.125 527.508C30.7969 529.971 29.4531 531.922 28.0938 533.359C29.026 533.177 29.9792 532.948 30.9531 532.672C30.8646 532.349 30.7109 531.977 30.4922 531.555L31.2266 531.266C31.6901 532.281 31.9844 533.141 32.1094 533.844ZM40.3125 526.047H32.2656V525.25H40.3125V526.047ZM34.7812 532.641L34.0781 532.977C33.474 531.815 32.8073 530.776 32.0781 529.859C32.8333 528.776 33.4245 527.794 33.8516 526.914L34.6016 527.203C34.1328 528.177 33.6068 529.062 33.0234 529.859C33.6797 530.698 34.2656 531.625 34.7812 532.641ZM40.4609 532.578L39.7578 532.961C39.2266 531.951 38.5703 530.953 37.7891 529.969C38.4974 528.943 39.0729 527.956 39.5156 527.008L40.2969 527.297C39.7969 528.271 39.2865 529.141 38.7656 529.906C39.5156 530.964 40.0807 531.854 40.4609 532.578ZM37.625 532.547L36.9219 532.945C36.3854 531.914 35.7396 530.906 34.9844 529.922C35.7344 528.839 36.2969 527.883 36.6719 527.055L37.4844 527.312C37.0469 528.167 36.5182 529.031 35.8984 529.906C36.5495 530.776 37.125 531.656 37.625 532.547ZM40.5078 538.461H32.25V537.664H35.9453V534.398H32.6875V533.586H40.1094V534.398H36.7969V537.664H40.5078V538.461ZM32.4766 536.914L31.7734 537.188C31.6016 536.37 31.3724 535.612 31.0859 534.914L31.7578 534.641C32.0807 535.365 32.3203 536.122 32.4766 536.914ZM28.3516 535.008C28.0911 536.482 27.7422 537.698 27.3047 538.656L26.5703 538.289C26.9505 537.398 27.2917 536.245 27.5938 534.828L28.3516 535.008ZM30.3125 538.211L29.5312 538.367C29.5469 537.341 29.4453 536.221 29.2266 535.008L29.9453 534.867C30.2318 536.201 30.3542 537.315 30.3125 538.211ZM56.0156 528.977L55.5781 529.695C54.5312 529.065 53.5677 528.586 52.6875 528.258C52.026 528.867 51.1068 529.331 49.9297 529.648L49.4688 528.945C50.75 528.633 51.6146 528.224 52.0625 527.719C52.5156 527.208 52.724 526.245 52.6875 524.828H53.4844C53.4844 525.214 53.4583 525.716 53.4062 526.336C54.2031 525.992 54.8906 525.604 55.4688 525.172L55.9609 525.773C55.2578 526.268 54.3568 526.74 53.2578 527.188C53.2214 527.333 53.1693 527.477 53.1016 527.617C53.9818 527.956 54.9531 528.409 56.0156 528.977ZM49.2891 525.906C48.5755 526.375 47.6901 526.812 46.6328 527.219L46.5391 527.555C47.6484 528.086 48.5078 528.534 49.1172 528.898L48.6484 529.586C48.1797 529.258 47.3594 528.794 46.1875 528.195C45.5156 528.924 44.7109 529.414 43.7734 529.664L43.2891 528.992C44.0391 528.805 44.6432 528.529 45.1016 528.164C45.5599 527.799 45.8411 527.346 45.9453 526.805C46.0547 526.258 46.1094 525.599 46.1094 524.828H46.8906C46.8698 525.495 46.8438 525.987 46.8125 526.305C47.3906 526.102 48.0521 525.771 48.7969 525.312L49.2891 525.906ZM51.6797 527.102L50.9531 527.438C50.7448 526.984 50.3776 526.409 49.8516 525.711L50.5078 525.312C50.9974 525.87 51.388 526.466 51.6797 527.102ZM45.1172 527.234L44.4141 527.617C44.0182 526.909 43.6068 526.318 43.1797 525.844L43.8516 525.391C44.4401 526.12 44.862 526.734 45.1172 527.234ZM56.0469 532.18H55.1953V530.719H43.8984V532.156H43.1016V529.969H56.0469V532.18ZM55.375 538.812H54.5391V538.211H44.5703V538.797H43.7578V535.266H48.5078C48.7266 534.849 48.8802 534.492 48.9688 534.195H45.0703V531.68H54.0625V534.195H49.8984C49.7109 534.628 49.5521 534.984 49.4219 535.266H55.375V538.812ZM53.2266 533.438V532.445H45.8984V533.438H53.2266ZM54.5391 537.453V536.047H44.5703V537.453H54.5391ZM64.2188 525.148C62.9375 528.086 61.237 530.284 59.1172 531.742L58.5391 531.086C60.5964 529.711 62.2083 527.648 63.375 524.898L64.2188 525.148ZM72.6172 530.977L72.0469 531.695C69.9375 530.195 68.474 528.232 67.6562 525.805H66.4609V524.945H68.25C69.0469 527.602 70.5026 529.612 72.6172 530.977ZM70.0312 530.766C70.0052 532.479 69.9036 534.018 69.7266 535.383C69.5495 536.747 69.375 537.594 69.2031 537.922C69.0312 538.25 68.7917 538.484 68.4844 538.625C68.1823 538.766 67.6536 538.836 66.8984 538.836C66.5703 538.836 66.1458 538.823 65.625 538.797L65.4375 537.938C66.0208 537.99 66.5599 538.016 67.0547 538.016C67.5339 538.016 67.8411 537.984 67.9766 537.922C68.1172 537.859 68.237 537.771 68.3359 537.656C68.4401 537.536 68.5547 537.188 68.6797 536.609C68.8047 536.026 68.9036 535.307 68.9766 534.453C69.0547 533.594 69.1068 532.648 69.1328 531.617H65.0234C64.6641 534.758 62.9036 537.227 59.7422 539.023L59.2266 538.352C62.1589 536.706 63.7865 534.461 64.1094 531.617H61.0859V530.766H70.0312ZM80.75 532.289L80.1875 532.961C79.6406 532.185 78.9948 531.458 78.25 530.781V538.797H77.4219V530.383C76.7292 532.003 75.8802 533.458 74.875 534.75L74.4453 533.906C75.4974 532.589 76.4688 530.823 77.3594 528.609H74.75V527.789H77.4219V524.828H78.25V527.789H80.5703V528.609H78.25V529.711C79.3333 530.674 80.1667 531.534 80.75 532.289ZM88.5234 530.766H86.0156V538.828H85.1641V530.766H82.1094C82.0052 532.797 81.7786 534.406 81.4297 535.594C81.0859 536.776 80.5651 537.883 79.8672 538.914L79.1953 538.352C80.5807 536.383 81.2734 533.695 81.2734 530.289V526.445C83.9505 526.174 86.0911 525.669 87.6953 524.93L88.2656 525.617C86.6875 526.289 84.6354 526.799 82.1094 527.148V529.953H88.5234V530.766Z" fill="#424242"/>
<rect x="0.5" y="432.5" width="114" height="118" rx="4.5" stroke="#002154"/>
<rect x="141.5" y="432.5" width="114" height="118" rx="4.5" fill="white"/>
<path d="M141 437C141 434.239 143.239 432 146 432H251C253.761 432 256 434.239 256 437V467H141V437Z" fill="#002154"/>
<path d="M178.162 441.762C176.85 443.514 175.247 444.94 173.354 446.042L172.581 444.495C174.011 443.751 175.35 442.6 176.598 441.041L178.162 441.762ZM187.936 443.291H178.883V441.727H187.936V443.291ZM178.54 445.093C177.983 446.036 177.389 446.924 176.756 447.756V456.914H175.086V449.681C174.441 450.319 173.841 450.817 173.284 451.175L172.581 449.575C174.104 448.579 175.575 446.874 176.993 444.46L178.54 445.093ZM188.384 447.844H185.958V455.139C185.958 456.334 185.308 456.932 184.007 456.932C183.175 456.932 182.36 456.914 181.563 456.879L180.966 455.244C181.47 455.256 182.401 455.262 183.761 455.262C183.878 455.262 183.989 455.215 184.095 455.121C184.206 455.021 184.262 454.901 184.262 454.761V447.844H178.391V446.262H188.384V447.844ZM197.437 444.39L196.426 445.594C195.711 444.732 194.932 443.953 194.088 443.256C193.666 443.965 193.174 444.674 192.611 445.383H195.89V446.842H194.615V448.187H196.848V449.646H194.615V454.286C195.371 454.104 196.048 453.908 196.646 453.697L196.751 455.121C194.647 455.83 192.74 456.369 191.029 456.738L190.616 455.297C191.653 455.098 192.477 454.913 193.086 454.743V449.646H190.924V448.187H193.086V446.842H191.97V446.086C191.765 446.256 191.565 446.411 191.372 446.552L190.458 445.216C191.671 444.255 192.69 442.869 193.517 441.059L195.011 441.472C194.964 441.653 194.885 441.817 194.773 441.964C195.863 442.819 196.751 443.628 197.437 444.39ZM205.988 455.42C205.988 455.789 205.865 456.117 205.619 456.404C205.379 456.691 205.019 456.85 204.538 456.879C204.063 456.914 203.688 456.932 203.413 456.932C203.138 456.932 202.874 456.92 202.622 456.896L202.156 455.367C202.373 455.391 202.616 455.402 202.886 455.402C203.618 455.402 204.058 455.364 204.204 455.288C204.351 455.206 204.424 455.071 204.424 454.884V452.722C202.918 453.325 201.374 453.853 199.792 454.304L199.273 453.135C199.15 454.594 198.67 455.944 197.832 457.187L196.522 456.035C197.36 454.986 197.779 453.606 197.779 451.896V446.552H201.04V441.226H202.657V446.552H205.988V455.42ZM204.424 451.263V448.028H199.344V448.942C201.148 449.165 202.528 449.429 203.483 449.733L203.035 451.14C201.787 450.729 200.568 450.448 199.379 450.296C199.35 451.491 199.32 452.367 199.291 452.924C200.867 452.572 202.578 452.019 204.424 451.263ZM206.489 442.377C206.12 443.473 205.552 444.694 204.784 446.042L203.396 445.269C204.046 444.173 204.585 443.021 205.013 441.814L206.489 442.377ZM200.267 445.304L198.913 446.024C198.351 444.683 197.727 443.514 197.041 442.518L198.43 441.814C199.232 443.01 199.845 444.173 200.267 445.304ZM196.83 450.384C196.783 451.333 196.625 452.376 196.355 453.513L195.081 453.196C195.321 452.394 195.471 451.354 195.529 450.076L196.83 450.384ZM192.664 453.855L191.337 454.163C191.243 452.985 191.056 451.772 190.774 450.524L192.075 450.208C192.386 451.468 192.582 452.684 192.664 453.855ZM223.971 446.121H222.389V443.994H210.761V446.191H209.152V442.553H215.674C215.393 442.084 215.146 441.706 214.936 441.419L216.553 441.023C216.793 441.381 217.106 441.891 217.493 442.553H223.971V446.121ZM224.419 456.413H208.774V455.007H215.779V453.337H209.82V451.913H215.779V450.454C214.32 450.56 212.527 450.604 210.4 450.586L210.093 449.232C211.353 448.904 212.659 448.058 214.013 446.692H211.297V445.286H221.826V446.692H216.228C215.19 447.776 214.188 448.6 213.222 449.162C214.985 449.15 217.171 449.001 219.778 448.714C219.614 448.556 219.213 448.26 218.574 447.826L219.813 446.947C221.583 448.096 222.896 449.145 223.751 450.094L222.6 451.157C222.225 450.747 221.806 450.34 221.343 449.936C220.054 450.07 218.738 450.19 217.396 450.296V451.913H223.426V453.337H217.396V455.007H224.419V456.413Z" fill="white"/>
<path d="M181.445 481.648L180.992 482.398C177.94 481.055 175.771 479.589 174.484 478C173.219 479.729 171.021 481.195 167.891 482.398L167.461 481.602C170.201 480.633 172.19 479.411 173.43 477.938H171.875V477.117H174.914C176.091 478.846 178.268 480.357 181.445 481.648ZM181.062 490.461H167.859V489.664H174.055V486.594H169.648V485.789H174.055V482.828H169.672V482.047H179.25V482.828H174.883V485.789H179.234V486.594H174.883V489.664H181.062V490.461ZM196.805 490.828H196.008V489.711H185.156V490.797H184.32V477.148H196.805V490.828ZM196.008 488.914V477.938H185.156V488.914H196.008ZM194.422 479.523L193.719 479.859C193.5 479.479 193.227 479.115 192.898 478.766L193.586 478.383C193.935 478.737 194.214 479.117 194.422 479.523ZM195.477 486.031C195.341 486.594 195.164 487.083 194.945 487.5C194.727 487.911 194.547 488.167 194.406 488.266C194.271 488.359 194.083 488.406 193.844 488.406C193.354 488.406 192.859 487.854 192.359 486.75C191.823 487.385 191.24 487.945 190.609 488.43L189.969 487.859C190.641 487.417 191.307 486.76 191.969 485.891C191.448 484.385 191.13 482.711 191.016 480.867H185.812V480.109H190.945C190.919 479.609 190.914 479.049 190.93 478.43H191.734C191.719 478.888 191.729 479.448 191.766 480.109H195.297V480.867H191.797C191.927 482.591 192.167 483.992 192.516 485.07C193.099 484.143 193.628 483.06 194.102 481.82L194.836 482.141C194.299 483.516 193.643 484.797 192.867 485.984C193.044 486.438 193.229 486.807 193.422 487.094C193.615 487.38 193.75 487.523 193.828 487.523C194.078 487.523 194.388 486.888 194.758 485.617L195.477 486.031ZM190.023 485.219H186.547V482.125H190.023V485.219ZM189.219 484.414V482.898H187.352V484.414H189.219ZM190.727 486.461C188.711 487.039 187.104 487.409 185.906 487.57L185.797 486.781C187.078 486.63 188.698 486.273 190.656 485.711L190.727 486.461ZM213.477 483.57H201.57C201.539 486.846 201.107 489.245 200.273 490.766L199.617 490.211C200.378 488.628 200.758 486.44 200.758 483.648L200.773 477.891H206.469C206.385 477.693 206.242 477.372 206.039 476.93L206.789 476.656C207.008 477.115 207.177 477.526 207.297 477.891H213.352V478.672H201.602L201.555 482.812H213.477V483.57ZM213.125 480.562H210.961V482.062H204.695V480.562H202.344V479.805H204.695V479.102H205.508V479.805H210.133V479.102H210.961V479.805H213.125V480.562ZM210.133 481.312V480.562H205.508V481.312H210.133ZM212.453 488.547H203.219V484.383H212.453V488.547ZM211.633 486.062V485.102H208.273V486.062H211.633ZM207.43 486.062V485.102H204.055V486.062H207.43ZM211.633 487.82V486.75H208.273V487.82H211.633ZM207.43 487.82V486.75H204.055V487.82H207.43ZM213.352 490.062L212.945 490.781C211.508 490.203 210.057 489.81 208.594 489.602L208.914 488.867C210.721 489.221 212.201 489.62 213.352 490.062ZM206.773 489.484C205.586 490.068 204.086 490.495 202.273 490.766L201.938 489.984C203.526 489.802 205.005 489.43 206.375 488.867L206.773 489.484ZM229.555 483.406H215.602V482.609H222.211V479.938H218.227C217.732 480.516 217.104 481.076 216.344 481.617L215.766 480.977C217.016 480.148 218.227 478.805 219.398 476.945L220.211 477.266C219.826 477.891 219.393 478.518 218.914 479.148H222.211V476.828H223.047V479.148H228.609V479.938H223.047V482.609H229.555V483.406ZM227.734 490.797H226.867V489.891H218.344V490.797H217.461V485.188H227.734V490.797ZM226.867 489.07V486.016H218.344V489.07H226.867ZM181.555 511.758C181.503 512.826 181.344 513.549 181.078 513.93C180.812 514.31 180.552 514.518 180.297 514.555C180.047 514.596 179.201 514.617 177.758 514.617C175.799 514.617 174.641 514.602 174.281 514.57C173.922 514.539 173.656 514.406 173.484 514.172C173.318 513.938 173.234 513.661 173.234 513.344V506.828L171.812 507.312L171.688 506.492L173.234 505.969V502.641H174.023V505.711L176.547 504.852V500.867H177.367V504.562L180.852 503.359C180.826 505.464 180.544 507.714 180.008 510.109L179.203 509.875C179.651 507.943 179.919 506.148 180.008 504.492L177.367 505.391V511.633H176.547V505.68L174.023 506.562V513.391C174.023 513.438 174.057 513.5 174.125 513.578C174.193 513.651 174.253 513.701 174.305 513.727C174.357 513.747 174.674 513.768 175.258 513.789C175.841 513.805 176.432 513.812 177.031 513.812C178.844 513.812 179.893 513.763 180.18 513.664C180.466 513.565 180.659 512.846 180.758 511.508L181.555 511.758ZM172.359 511.57C170.724 512.424 169.214 513.091 167.828 513.57L167.602 512.766C168.253 512.552 168.919 512.286 169.602 511.969V505.648H167.766V504.828H169.602V501.023H170.438V504.828H172.18V505.648H170.438V511.617C171.328 511.174 171.924 510.87 172.227 510.703L172.359 511.57ZM197.492 504.289H188.773C188.773 505.128 188.747 506.055 188.695 507.07H195.539C195.529 508.633 195.435 510.083 195.258 511.422C195.081 512.755 194.909 513.591 194.742 513.93C194.576 514.263 194.339 514.503 194.031 514.648C193.729 514.794 193.062 514.867 192.031 514.867C191.677 514.867 191.331 514.862 190.992 514.852L190.742 513.953C191.242 513.984 191.74 514 192.234 514C193.005 514 193.469 513.958 193.625 513.875C193.786 513.792 193.914 513.651 194.008 513.453C194.102 513.25 194.224 512.56 194.375 511.383C194.531 510.206 194.625 509.047 194.656 507.906H188.609C188.406 510.693 186.909 512.99 184.117 514.797L183.43 514.125C184.398 513.578 185.273 512.846 186.055 511.93C186.841 511.008 187.344 510.029 187.562 508.992C187.781 507.951 187.891 506.383 187.891 504.289H183.672V503.422H190.359C189.932 502.589 189.419 501.826 188.82 501.133L189.633 500.75C190.232 501.438 190.797 502.328 191.328 503.422H197.492V504.289ZM213.477 507.57H201.57C201.539 510.846 201.107 513.245 200.273 514.766L199.617 514.211C200.378 512.628 200.758 510.44 200.758 507.648L200.773 501.891H206.469C206.385 501.693 206.242 501.372 206.039 500.93L206.789 500.656C207.008 501.115 207.177 501.526 207.297 501.891H213.352V502.672H201.602L201.555 506.812H213.477V507.57ZM213.125 504.562H210.961V506.062H204.695V504.562H202.344V503.805H204.695V503.102H205.508V503.805H210.133V503.102H210.961V503.805H213.125V504.562ZM210.133 505.312V504.562H205.508V505.312H210.133ZM212.453 512.547H203.219V508.383H212.453V512.547ZM211.633 510.062V509.102H208.273V510.062H211.633ZM207.43 510.062V509.102H204.055V510.062H207.43ZM211.633 511.82V510.75H208.273V511.82H211.633ZM207.43 511.82V510.75H204.055V511.82H207.43ZM213.352 514.062L212.945 514.781C211.508 514.203 210.057 513.81 208.594 513.602L208.914 512.867C210.721 513.221 212.201 513.62 213.352 514.062ZM206.773 513.484C205.586 514.068 204.086 514.495 202.273 514.766L201.938 513.984C203.526 513.802 205.005 513.43 206.375 512.867L206.773 513.484ZM229.555 507.406H215.602V506.609H222.211V503.938H218.227C217.732 504.516 217.104 505.076 216.344 505.617L215.766 504.977C217.016 504.148 218.227 502.805 219.398 500.945L220.211 501.266C219.826 501.891 219.393 502.518 218.914 503.148H222.211V500.828H223.047V503.148H228.609V503.938H223.047V506.609H229.555V507.406ZM227.734 514.797H226.867V513.891H218.344V514.797H217.461V509.188H227.734V514.797ZM226.867 513.07V510.016H218.344V513.07H226.867ZM189.25 527.266H183.586V526.43H186.086C185.945 525.966 185.732 525.497 185.445 525.023L186.18 524.688C186.497 525.203 186.758 525.784 186.961 526.43H189.25V527.266ZM197.445 530.625H195.891C195.125 530.625 194.742 530.258 194.742 529.523V526.078H191.922C191.896 527.552 191.698 528.648 191.328 529.367C190.964 530.081 190.458 530.643 189.812 531.055L189.188 530.477C189.823 530.076 190.31 529.526 190.648 528.828C190.992 528.125 191.151 526.943 191.125 525.281H195.539V529.281C195.539 529.641 195.716 529.82 196.07 529.82H197.445V530.625ZM188.82 529.586H183.906V528.781H188.82V529.586ZM188.805 531.938H183.891V531.133H188.805V531.938ZM197.508 538.18L197.031 538.867C195.411 538.331 194.161 537.716 193.281 537.023C192.255 537.753 190.977 538.339 189.445 538.781L188.945 538.094C190.555 537.62 191.766 537.076 192.578 536.461C191.474 535.445 190.669 534.086 190.164 532.383H189.617V531.57H196.32V532.383C195.633 534.253 194.833 535.617 193.922 536.477C194.828 537.128 196.023 537.695 197.508 538.18ZM195.414 532.383H191.016C191.568 533.956 192.318 535.141 193.266 535.938C194.219 535.057 194.935 533.872 195.414 532.383ZM188.578 538.477H187.75V537.602H184.852V538.781H184.023V533.453H188.578V538.477ZM187.75 536.781V534.305H184.852V536.781H187.75ZM206.227 527.57H199.602V526.734H202.625C202.391 526.193 202.073 525.622 201.672 525.023L202.469 524.703C202.823 525.193 203.185 525.87 203.555 526.734H206.227V527.57ZM213.555 530.258H210.359V538.828H209.492V530.258H206.305V529.406H209.492V524.852H210.359V529.406H213.555V530.258ZM205.414 529.859H200.344V529.055H205.414V529.859ZM205.414 532.109H200.344V531.328H205.414V532.109ZM205.414 538.672H204.594V537.891H201.172V538.797H200.344V533.648H205.414V538.672ZM204.594 537.039V534.445H201.172V537.039H204.594Z" fill="#424242"/>
<rect x="141.5" y="432.5" width="114" height="118" rx="4.5" stroke="#002154"/>
<rect x="282.5" y="432.5" width="114" height="118" rx="4.5" fill="white"/>
<path d="M282 437C282 434.239 284.239 432 287 432H392C394.761 432 397 434.239 397 437V467H282V437Z" fill="#002154"/>
<path d="M329.507 455.71L328.47 457.028C324.966 454.374 322.66 451.588 321.553 448.67C320.686 451.939 318.389 454.693 314.662 456.932L313.581 455.622C318.31 452.675 320.674 448.828 320.674 444.082V441.208H322.379V444.908C322.379 446.865 323.032 448.784 324.339 450.665C325.651 452.54 327.374 454.222 329.507 455.71ZM347.226 443.511C346.669 444.308 346.145 444.979 345.652 445.523L344.29 444.715C344.442 444.539 344.765 444.138 345.257 443.511H339.588C339.037 444.144 338.51 444.671 338.006 445.093L336.784 444.047C337.716 443.373 338.609 442.354 339.465 440.988L340.941 441.489C340.889 441.694 340.774 441.905 340.599 442.122H347.226V443.511ZM336.854 443.309H332.012V441.867H336.854V443.309ZM347.542 446.675L346.786 448.116C346.323 448.022 345.802 447.873 345.222 447.668V454.436H337.628L338.401 455.332C336.708 456.111 334.71 456.688 332.407 457.063L331.634 455.622C333.345 455.417 334.982 455.021 336.547 454.436H333.901V447.633H337.303L336.617 446.64C338.721 446.106 340.288 445.172 341.319 443.836L342.954 444.196C342.778 444.519 342.646 444.721 342.559 444.803C343.836 445.629 345.497 446.253 347.542 446.675ZM345.046 447.633C343.839 447.24 342.667 446.663 341.53 445.901C340.78 446.581 339.805 447.158 338.604 447.633H345.046ZM343.604 449.54V448.907H335.58V449.54H343.604ZM343.604 451.377V450.709H335.58V451.377H343.604ZM343.604 453.249V452.546H335.58V453.249H343.604ZM337.013 446.174H331.774V444.697H337.013V446.174ZM347.437 455.745L346.575 457.134C345.005 456.63 343.247 456.264 341.302 456.035L342.128 454.682C344.026 454.846 345.796 455.2 347.437 455.745ZM364.971 446.121H363.389V443.994H351.761V446.191H350.152V442.553H356.674C356.393 442.084 356.146 441.706 355.936 441.419L357.553 441.023C357.793 441.381 358.106 441.891 358.493 442.553H364.971V446.121ZM365.419 456.413H349.774V455.007H356.779V453.337H350.82V451.913H356.779V450.454C355.32 450.56 353.527 450.604 351.4 450.586L351.093 449.232C352.353 448.904 353.659 448.058 355.013 446.692H352.297V445.286H362.826V446.692H357.228C356.19 447.776 355.188 448.6 354.222 449.162C355.985 449.15 358.171 449.001 360.778 448.714C360.614 448.556 360.213 448.26 359.574 447.826L360.813 446.947C362.583 448.096 363.896 449.145 364.751 450.094L363.6 451.157C363.225 450.747 362.806 450.34 362.343 449.936C361.054 450.07 359.738 450.19 358.396 450.296V451.913H364.426V453.337H358.396V455.007H365.419V456.413Z" fill="white"/>
<path d="M338.555 498.953C338.388 500.839 337.956 501.781 337.258 501.781C336.643 501.781 336.133 501.073 335.727 499.656C334.924 500.531 334.161 501.172 333.438 501.578L333.008 500.984C333.898 500.37 334.724 499.607 335.484 498.695C335.255 497.221 335.122 495.409 335.086 493.258H329.305V492.484H330.828C330.693 491.667 330.521 490.867 330.312 490.086H329.758V489.352H331.773C331.69 489.07 331.487 488.669 331.164 488.148L331.867 487.766C332.143 488.214 332.398 488.742 332.633 489.352H334.492V490.086H333.852C333.768 490.94 333.635 491.74 333.453 492.484H335.055V487.883H335.836C335.815 489.883 335.805 491.424 335.805 492.508H338.461V493.258H335.852C335.852 495.044 335.943 496.495 336.125 497.609C336.583 496.786 337.005 495.677 337.391 494.281L338.078 494.539C337.615 496.289 337.026 497.716 336.312 498.82C336.406 499.388 336.557 499.875 336.766 500.281C336.979 500.682 337.146 500.883 337.266 500.883C337.354 500.883 337.461 500.664 337.586 500.227C337.711 499.789 337.799 499.221 337.852 498.523L338.555 498.953ZM333.055 490.086H331.117C331.346 490.992 331.51 491.792 331.609 492.484H332.672C332.807 491.854 332.935 491.055 333.055 490.086ZM329.258 489.195H328.617V501.852H327.867V499.211C326.596 499.779 325.562 500.193 324.766 500.453L324.508 499.75C324.951 499.594 325.255 499.482 325.422 499.414V489.195H324.734V488.422H329.258V489.195ZM327.867 491.688V489.195H326.188V491.688H327.867ZM327.867 495.211V492.453H326.188V495.211H327.867ZM327.867 498.406V495.961H326.188V499.109C326.479 499.01 327.039 498.776 327.867 498.406ZM338.172 491.289L337.453 491.594C337.25 490.818 336.961 490.039 336.586 489.258L337.289 488.953C337.711 489.839 338.005 490.617 338.172 491.289ZM333.93 499.656H330.062V494.359H333.93V499.656ZM333.164 496.57V495.094H330.828V496.57H333.164ZM333.164 498.922V497.305H330.828V498.922H333.164ZM354.648 501.109L354.141 501.867C352.839 501.018 351.826 500.122 351.102 499.18C349.93 500.346 348.755 501.237 347.578 501.852L347.039 501.125C348.565 500.323 349.763 499.422 350.633 498.422C350.091 497.464 349.638 496.099 349.273 494.328L350.078 494.039C350.37 495.68 350.737 496.906 351.18 497.719C352.305 495.927 352.818 493.747 352.719 491.18H350.281C349.646 492.706 348.969 493.958 348.25 494.938L347.609 494.344C349 492.542 349.901 490.344 350.312 487.75L351.133 487.961C350.956 488.857 350.758 489.656 350.539 490.359H354.539V491.18H353.547C353.531 494.315 352.896 496.758 351.641 498.508C352.344 499.471 353.346 500.339 354.648 501.109ZM348.633 488.82C347.961 489.956 347.216 490.992 346.398 491.93H348.125V492.711H345.641C345.057 493.315 344.521 493.828 344.031 494.25H347.117V494.969C346.451 495.635 345.758 496.266 345.039 496.859V497.641C345.992 497.484 346.951 497.286 347.914 497.047L347.883 497.883C346.997 498.091 346.049 498.281 345.039 498.453V500.648C345.039 500.992 344.94 501.268 344.742 501.477C344.549 501.685 344.089 501.789 343.359 501.789C343.094 501.789 342.815 501.776 342.523 501.75L342.266 500.906C342.547 500.932 342.885 500.945 343.281 500.945C343.734 500.945 344.008 500.911 344.102 500.844C344.201 500.776 344.25 500.656 344.25 500.484V498.617C342.849 498.841 341.708 499.005 340.828 499.109L340.633 498.344C342.003 498.161 343.208 497.974 344.25 497.781V496.523C344.812 496.055 345.362 495.552 345.898 495.016H342.984C342.297 495.526 341.654 495.964 341.055 496.328L340.508 495.641C342.253 494.63 343.602 493.654 344.555 492.711H340.812V491.93H343.742V490.102H341.289V489.352H343.742V487.797H344.555V489.352H346.43V490.102H344.555V491.93H345.344C346.302 490.935 347.154 489.771 347.898 488.438L348.633 488.82ZM338.57 525.18L337.945 525.812C334.617 523.469 332.479 520.247 331.531 516.148C330.854 519.888 328.732 523.099 325.164 525.781L324.586 525.094C325.799 524.266 326.909 523.229 327.914 521.984C328.919 520.74 329.685 519.37 330.211 517.875C330.737 516.375 331.018 514.349 331.055 511.797H331.945C331.914 514.75 332.503 517.367 333.711 519.648C334.919 521.924 336.539 523.768 338.57 525.18ZM354.508 521.305H353.195V523.352H347.914V524.664C347.914 525.086 347.781 525.375 347.516 525.531C347.255 525.688 346.69 525.766 345.82 525.766C345.534 525.766 345.24 525.755 344.938 525.734L344.672 524.969L346.688 524.953C346.964 524.953 347.102 524.81 347.102 524.523V523.352H341.422V522.633H347.102V521.305H340.555V520.539H347.102V519.352H341.422V518.586H347.102V517.398H341.93V514.695H347.102V513.625H340.672V512.891H347.102V511.766H347.914V512.891H354.312V513.625H347.914V514.695H353.102V517.398H347.914V518.586H353.195V520.539H354.508V521.305ZM352.25 516.633V515.445H347.914V516.633H352.25ZM347.102 516.633V515.445H342.781V516.633H347.102ZM352.352 520.539V519.352H347.914V520.539H352.352ZM352.352 522.633V521.305H347.914V522.633H352.352Z" fill="#424242"/>
<rect x="282.5" y="432.5" width="114" height="118" rx="4.5" stroke="#002154"/>
<rect x="424.5" y="432.5" width="114" height="118" rx="4.5" fill="white"/>
<path d="M424 437C424 434.239 426.239 432 429 432H534C536.761 432 539 434.239 539 437V467H424V437Z" fill="#002154"/>
<path d="M471.437 443.563H465.891C465.615 443.985 465.275 444.41 464.871 444.838L463.412 444.064C464.402 443.016 465.103 441.996 465.513 441.006L467.139 441.472C466.986 441.782 466.854 442.028 466.743 442.21H471.437V443.563ZM463.412 443.563H458.657C458.112 444.19 457.447 444.809 456.662 445.418L455.616 444.117C456.999 443.191 457.91 442.172 458.35 441.059L459.976 441.489C459.894 441.712 459.773 441.952 459.615 442.21H463.412V443.563ZM461.751 445.11L459.993 445.436C459.835 445.096 459.583 444.674 459.237 444.17L460.942 443.818C461.165 444.082 461.435 444.513 461.751 445.11ZM469.028 445.216L467.297 445.488C467.156 445.072 466.928 444.604 466.611 444.082L468.36 443.889C468.595 444.27 468.817 444.712 469.028 445.216ZM470.988 448.907H469.406V447.176H457.726V448.907H456.135V445.849H462.621C462.557 445.679 462.41 445.409 462.182 445.04L464.019 444.75C464.183 444.99 464.376 445.356 464.599 445.849H470.988V448.907ZM469.354 456.158H459.791V456.879H458.227V448.081H468.756V451.518H459.791V452.476H469.354V456.158ZM467.156 450.349V449.303H459.791V450.349H467.156ZM467.745 454.937V453.68H459.791V454.937H467.745ZM489.401 456.501H479.092V455.042H483.513V453.267H479.716V451.843H483.513V450.296H479.83V441.656H488.716V450.296H485.086V451.843H488.971V453.267H485.086V455.042H489.401V456.501ZM487.151 445.233V443.08H485.086V445.233H487.151ZM483.513 445.233V443.08H481.412V445.233H483.513ZM487.151 448.872V446.534H485.086V448.872H487.151ZM483.513 448.872V446.534H481.412V448.872H483.513ZM479.162 453.064C477.785 453.914 476.115 454.778 474.152 455.657L473.599 454.128C474.032 453.958 474.747 453.633 475.743 453.152V448.67H474.012V447.176H475.743V443.616H473.739V442.175H479.127V443.616H477.29V447.176H478.854V448.67H477.29V452.326C477.905 452.068 478.512 451.752 479.109 451.377L479.162 453.064ZM506.971 446.121H505.389V443.994H493.761V446.191H492.152V442.553H498.674C498.393 442.084 498.146 441.706 497.936 441.419L499.553 441.023C499.793 441.381 500.106 441.891 500.493 442.553H506.971V446.121ZM507.419 456.413H491.774V455.007H498.779V453.337H492.82V451.913H498.779V450.454C497.32 450.56 495.527 450.604 493.4 450.586L493.093 449.232C494.353 448.904 495.659 448.058 497.013 446.692H494.297V445.286H504.826V446.692H499.228C498.19 447.776 497.188 448.6 496.222 449.162C497.985 449.15 500.171 449.001 502.778 448.714C502.614 448.556 502.213 448.26 501.574 447.826L502.813 446.947C504.583 448.096 505.896 449.145 506.751 450.094L505.6 451.157C505.225 450.747 504.806 450.34 504.343 449.936C503.054 450.07 501.738 450.19 500.396 450.296V451.913H506.426V453.337H500.396V455.007H507.419V456.413Z" fill="white"/>
<path d="M471.133 487.312C470.174 488.505 468.836 489.615 467.117 490.641L466.633 489.984C468.383 488.906 469.654 487.844 470.445 486.797L471.133 487.312ZM479.773 488.383H472.172V487.539H479.773V488.383ZM471.5 490.492C471.062 491.237 470.544 491.969 469.945 492.688V500.867H469.117V493.664C468.539 494.279 467.846 494.919 467.039 495.586L466.602 494.93C468.591 493.18 469.99 491.547 470.797 490.031L471.5 490.492ZM480.555 492.43H478.031V499.539C478.031 499.888 477.94 500.161 477.758 500.359C477.581 500.562 477.378 500.685 477.148 500.727C476.919 500.773 476.458 500.797 475.766 500.797C475.172 500.797 474.693 500.786 474.328 500.766L473.992 499.906C474.445 499.927 474.922 499.938 475.422 499.938C476.354 499.938 476.872 499.919 476.977 499.883C477.081 499.841 477.133 499.747 477.133 499.602V492.43H471.5V491.586H480.555V492.43ZM496.672 500.141L496.172 500.867C494.615 500.029 493.435 499.094 492.633 498.062C491.508 499.188 490.245 500.128 488.844 500.883L488.297 500.227C489.995 499.32 491.276 498.38 492.141 497.406C491.49 496.375 490.966 495.122 490.57 493.648L491.344 493.359C491.708 494.771 492.151 495.891 492.672 496.719C493.688 495.188 494.273 493.018 494.43 490.211H491.453C491.078 491.445 490.586 492.622 489.977 493.742L489.32 493.172C490.326 491.406 490.992 489.271 491.32 486.766L492.172 486.93C492.026 487.815 491.854 488.635 491.656 489.391H496.25V490.211H495.242C495.029 493.497 494.331 495.917 493.148 497.469C494.029 498.552 495.203 499.443 496.672 500.141ZM489.742 497.484C487.138 498.573 484.854 499.443 482.891 500.094L482.57 499.312C483.055 499.161 483.38 499.044 483.547 498.961V491.086H484.383V498.672C484.659 498.583 485.169 498.401 485.914 498.125V488.352H482.781V487.523H489.531V488.352H486.75V492.383H488.938V493.188H486.75V497.773C487.464 497.523 488.411 497.151 489.594 496.656L489.742 497.484ZM472.141 519.844L471.469 520.094C471.427 519.911 471.352 519.677 471.242 519.391C469.758 519.849 468.312 520.19 466.906 520.414L466.617 519.633C467.727 518.695 468.763 517.438 469.727 515.859C468.727 516.057 467.812 516.201 466.984 516.289L466.734 515.523C467.734 514.383 468.615 512.797 469.375 510.766L470.109 510.992C469.438 512.815 468.643 514.281 467.727 515.391C468.424 515.307 469.26 515.159 470.234 514.945C470.625 514.305 470.987 513.612 471.32 512.867L472.062 513.188C470.729 515.891 469.289 517.984 467.742 519.469C468.659 519.328 469.74 519.057 470.984 518.656C470.932 518.396 470.799 518.039 470.586 517.586L471.258 517.266C471.648 518.125 471.943 518.984 472.141 519.844ZM479.469 519.203H472.617V512.031H474.461C474.695 511.594 474.898 511.182 475.07 510.797L475.789 511.023C475.659 511.404 475.51 511.74 475.344 512.031H479.469V519.203ZM478.672 518.43V512.812H473.438V518.43H478.672ZM478.203 517.133L477.727 517.727C477.32 517.258 476.974 516.885 476.688 516.609C476.292 517.104 475.875 517.573 475.438 518.016L474.875 517.555C475.349 517.06 475.76 516.578 476.109 516.109C475.859 515.849 475.62 515.648 475.391 515.508C475.161 515.82 474.831 516.193 474.398 516.625L473.852 516.109C474.107 515.88 474.417 515.529 474.781 515.055C474.516 514.831 474.266 514.651 474.031 514.516L474.43 513.906C474.685 514.057 474.951 514.227 475.227 514.414C475.471 514.034 475.701 513.63 475.914 513.203L476.57 513.508C476.414 513.867 476.164 514.32 475.82 514.867C476.06 515.049 476.294 515.245 476.523 515.453C476.883 514.901 477.219 514.279 477.531 513.586L478.172 513.875C477.911 514.531 477.555 515.224 477.102 515.953C477.331 516.182 477.698 516.576 478.203 517.133ZM477.727 521.742L477.055 522.062C476.628 521.167 476.216 520.453 475.82 519.922L476.555 519.602C477.076 520.346 477.466 521.06 477.727 521.742ZM478.922 522.383C478.891 522.867 478.807 523.294 478.672 523.664C478.542 524.034 478.349 524.284 478.094 524.414C477.839 524.549 477.346 524.617 476.617 524.617C475.633 524.617 475.016 524.539 474.766 524.383C474.521 524.232 474.398 523.917 474.398 523.438V519.938H475.211V523.523C475.211 523.701 475.307 523.807 475.5 523.844C475.693 523.88 476.013 523.898 476.461 523.898C477.086 523.898 477.479 523.849 477.641 523.75C477.802 523.646 477.922 523.443 478 523.141C478.083 522.839 478.135 522.464 478.156 522.016L478.922 522.383ZM480.703 523.484L480.016 523.984C479.693 522.964 479.227 521.88 478.617 520.734L479.273 520.258C479.893 521.451 480.37 522.526 480.703 523.484ZM473.727 520.562C473.388 522.109 472.956 523.352 472.43 524.289L471.727 523.922C472.32 522.828 472.729 521.638 472.953 520.352L473.727 520.562ZM471.93 522.609L471.18 522.867C471.07 522.221 470.901 521.565 470.672 520.898L471.391 520.641C471.62 521.25 471.799 521.906 471.93 522.609ZM468.234 521.008C468.047 522.378 467.737 523.641 467.305 524.797L466.539 524.531C466.997 523.297 467.302 522.062 467.453 520.828L468.234 521.008ZM470.188 524.211L469.406 524.367C469.396 523.404 469.234 522.299 468.922 521.055L469.68 520.883C469.966 521.888 470.135 522.997 470.188 524.211ZM496.508 517.727L496.047 518.445C494.818 518.081 493.669 517.51 492.602 516.734C491.602 517.474 490.578 518.034 489.531 518.414L488.969 517.727C489.974 517.424 490.966 516.919 491.945 516.211C491.289 515.555 490.81 514.961 490.508 514.43L491.211 514.031C491.576 514.661 492.029 515.216 492.57 515.695C493.299 515.07 493.865 514.211 494.266 513.117H490.844C490.161 513.982 489.536 514.638 488.969 515.086L488.352 514.516C489.539 513.578 490.542 512.323 491.359 510.75L492.156 511.055C491.964 511.451 491.714 511.872 491.406 512.32H496.266V513.117H495.133C494.716 514.357 494.086 515.383 493.242 516.195C494.227 516.888 495.315 517.398 496.508 517.727ZM488.688 516C488.615 517.365 488.198 518.591 487.438 519.68L486.828 519.102C487.286 518.409 487.607 517.641 487.789 516.797H486.297V523.82C486.297 524.029 486.211 524.245 486.039 524.469C485.872 524.698 485.443 524.812 484.75 524.812C484.484 524.812 484.24 524.797 484.016 524.766L483.547 523.906C484.224 523.958 484.753 523.984 485.133 523.984C485.211 523.984 485.294 523.945 485.383 523.867C485.471 523.789 485.516 523.711 485.516 523.633V517.859C484.74 519.818 483.93 521.346 483.086 522.445L482.539 521.805C483.477 520.586 484.326 518.917 485.086 516.797H482.602V516H486.141C485.474 515.234 484.654 514.516 483.68 513.844L484.266 513.312C484.646 513.573 485.128 513.945 485.711 514.43C486.451 513.586 487.036 512.781 487.469 512.016H483.164V511.219H488.383V512.016C487.857 512.984 487.172 513.966 486.328 514.961L486.875 515.57L486.383 516H488.688ZM495.562 519.664C495.531 520.753 495.445 521.734 495.305 522.609C495.164 523.484 495.021 524.013 494.875 524.195C494.734 524.378 494.555 524.534 494.336 524.664C494.122 524.799 493.438 524.849 492.281 524.812L491.898 523.953C492.227 523.979 492.583 523.992 492.969 523.992C493.552 523.992 493.898 523.964 494.008 523.906C494.122 523.849 494.211 523.766 494.273 523.656C494.336 523.542 494.409 523.188 494.492 522.594C494.576 522 494.651 521.289 494.719 520.461H492.047C491.599 522.518 490.276 523.987 488.078 524.867L487.469 524.211C488.349 523.94 489.146 523.456 489.859 522.758C490.573 522.055 491.029 521.289 491.227 520.461H488.688V519.664H491.422C491.5 519.242 491.547 518.708 491.562 518.062L492.367 518.094C492.367 518.484 492.323 519.008 492.234 519.664H495.562Z" fill="#424242"/>
<rect x="424.5" y="432.5" width="114" height="118" rx="4.5" stroke="#002154"/>
<rect x="564.5" y="432.5" width="114" height="118" rx="4.5" fill="white"/>
<path d="M564 437C564 434.239 566.239 432 569 432H674C676.761 432 679 434.239 679 437V467H564V437Z" fill="#002154"/>
<path d="M611.366 446.209H609.907V455.481C609.907 455.915 609.772 456.249 609.503 456.483C609.239 456.724 608.923 456.858 608.554 456.888C608.19 456.917 607.473 456.92 606.4 456.896L605.75 455.262C606.225 455.309 606.699 455.332 607.174 455.332C607.742 455.332 608.079 455.291 608.185 455.209C608.29 455.127 608.343 455.007 608.343 454.849V447.879C607.388 450.234 605.917 452.37 603.931 454.286L602.902 452.977C605.041 451.066 606.591 448.811 607.552 446.209H603.43V444.662H608.343V441.243H609.907V444.662H611.366V446.209ZM602.604 452.581H597.743L598.982 453.117C598.555 454.4 597.852 455.716 596.873 457.063L595.599 456.053C596.489 454.834 597.119 453.677 597.488 452.581H596.442V441.639H602.604V452.581ZM601.03 444.785V443.168H597.989V444.785H601.03ZM601.03 447.932V446.209H597.989V447.932H601.03ZM601.03 451.104V449.338H597.989V451.104H601.03ZM603.087 455.93L601.733 456.65C601.218 455.666 600.582 454.705 599.826 453.768L601.285 453.047C602.105 454.072 602.706 455.033 603.087 455.93ZM629.674 444.337L629.041 445.761C627.57 445.397 626.082 444.905 624.576 444.284V444.952H618.696V444.249C617.308 444.864 615.837 445.38 614.284 445.796L613.493 444.495C617.038 443.581 619.654 442.412 621.342 440.988L623.1 441.419C622.977 441.571 622.868 441.686 622.774 441.762C624.444 442.816 626.744 443.675 629.674 444.337ZM623.319 443.704C622.353 443.165 621.764 442.831 621.553 442.702C621.061 443.071 620.498 443.405 619.865 443.704H623.319ZM628.03 450.331H615.181V445.682H628.03V450.331ZM626.448 449.074V446.965H622.379V449.074H626.448ZM625.763 447.809C625.364 448.143 624.86 448.491 624.251 448.854L623.135 448.099C623.838 447.653 624.33 447.328 624.611 447.123L625.763 447.809ZM620.797 449.074V446.965H616.745V449.074H620.797ZM620.006 448.187L618.872 448.907C618.438 448.544 617.94 448.189 617.378 447.844L618.494 447.088C618.863 447.293 619.367 447.659 620.006 448.187ZM627.257 456.879H625.675V456.237H617.615V456.879H615.972V451.122H627.257V456.879ZM625.675 453.082V452.344H617.615V453.082H625.675ZM625.675 454.989V454.198H617.615V454.989H625.675ZM646.971 446.121H645.389V443.994H633.761V446.191H632.152V442.553H638.674C638.393 442.084 638.146 441.706 637.936 441.419L639.553 441.023C639.793 441.381 640.106 441.891 640.493 442.553H646.971V446.121ZM647.419 456.413H631.774V455.007H638.779V453.337H632.82V451.913H638.779V450.454C637.32 450.56 635.527 450.604 633.4 450.586L633.093 449.232C634.353 448.904 635.659 448.058 637.013 446.692H634.297V445.286H644.826V446.692H639.228C638.19 447.776 637.188 448.6 636.222 449.162C637.985 449.15 640.171 449.001 642.778 448.714C642.614 448.556 642.213 448.26 641.574 447.826L642.813 446.947C644.583 448.096 645.896 449.145 646.751 450.094L645.6 451.157C645.225 450.747 644.806 450.34 644.343 449.936C643.054 450.07 641.738 450.19 640.396 450.296V451.913H646.426V453.337H640.396V455.007H647.419V456.413Z" fill="white"/>
<path d="M620.25 488.766C619.708 489.531 619.208 490.135 618.75 490.578L618.141 490C618.552 489.583 618.94 489.13 619.305 488.641H613.453C613.021 489.188 612.534 489.667 611.992 490.078L611.438 489.523C612.354 488.836 613.128 487.896 613.758 486.703L614.539 486.977L614.031 487.859H620.25V488.766ZM611.039 488.305H607.008V487.539H611.039V488.305ZM620.586 491.695L620.234 492.477C618.188 492.174 616.594 491.552 615.453 490.609C614.536 491.49 613.315 492.096 611.789 492.43L611.359 491.664C613.323 491.362 614.677 490.562 615.422 489.266L616.297 489.422C616.266 489.552 616.143 489.76 615.93 490.047C617.008 490.932 618.56 491.482 620.586 491.695ZM611.164 491.188H606.688V490.383H611.164V491.188ZM618.188 498.562H611.836L612.234 499.086C610.583 499.919 608.833 500.529 606.984 500.914L606.57 500.156C608.284 499.87 609.911 499.339 611.453 498.562H608.969V492.703H618.188V498.562ZM617.359 494.367V493.453H609.82V494.367H617.359ZM617.359 496.078V495.086H609.82V496.078H617.359ZM617.359 497.805V496.797H609.82V497.805H617.359ZM620.492 500.195L620.109 500.93C618.552 500.346 617.005 499.898 615.469 499.586L615.867 498.867C617.529 499.206 619.07 499.648 620.492 500.195ZM636.555 491.859L636.047 492.609C635.005 492.13 634.146 491.677 633.469 491.25V492.016H629.914V494.289H635.625V495.102H629.914V499.586H635.961V500.398H623.211V499.586H629.086V495.102H623.516V494.289H629.086V492.016H625.68V491.188C624.701 491.771 623.831 492.219 623.07 492.531L622.523 491.789C625.513 490.612 627.818 488.932 629.438 486.75L630.328 487.055L630.109 487.328C631.776 489.302 633.924 490.812 636.555 491.859ZM633.32 491.148C632.018 490.372 630.771 489.312 629.578 487.969C628.635 489.083 627.367 490.143 625.773 491.148H633.32ZM627.305 498.562L626.523 498.883C626.237 498.169 625.708 497.284 624.938 496.227L625.695 495.875C626.383 496.786 626.919 497.682 627.305 498.562ZM634.367 496.289C633.742 497.461 633.143 498.362 632.57 498.992L631.82 498.531C632.393 497.953 633 497.073 633.641 495.891L634.367 496.289ZM620.648 513.953L620.297 514.719C618.568 514.302 617.177 513.828 616.125 513.297V513.922H610.953V513.312C609.823 513.901 608.479 514.419 606.922 514.867L606.492 514.141C609.357 513.401 611.656 512.255 613.391 510.703L614.312 510.977C614.198 511.091 614.115 511.172 614.062 511.219C615.74 512.479 617.935 513.391 620.648 513.953ZM615.742 513.148C614.93 512.727 614.167 512.253 613.453 511.727C612.755 512.263 612.039 512.737 611.305 513.148H615.742ZM619.07 518.812H607.961V514.883H619.07V518.812ZM618.25 518.047V515.648H613.945V518.047H618.25ZM617.039 516.258C616.669 516.805 616.268 517.273 615.836 517.664L615.211 517.219C615.643 516.88 616.029 516.469 616.367 515.984L617.039 516.258ZM613.102 518.047V515.648H608.781V518.047H613.102ZM611.773 517.234L611.18 517.68C610.826 517.206 610.424 516.753 609.977 516.32L610.586 515.922C611.029 516.276 611.424 516.714 611.773 517.234ZM618.367 524.797H617.562V524.125H609.531V524.797H608.688V519.742H618.367V524.797ZM617.562 521.555V520.516H609.531V521.555H617.562ZM617.562 523.359V522.289H609.531V523.359H617.562ZM629.227 513.57H622.602V512.734H625.625C625.391 512.193 625.073 511.622 624.672 511.023L625.469 510.703C625.823 511.193 626.185 511.87 626.555 512.734H629.227V513.57ZM636.555 516.258H633.359V524.828H632.492V516.258H629.305V515.406H632.492V510.852H633.359V515.406H636.555V516.258ZM628.414 515.859H623.344V515.055H628.414V515.859ZM628.414 518.109H623.344V517.328H628.414V518.109ZM628.414 524.672H627.594V523.891H624.172V524.797H623.344V519.648H628.414V524.672ZM627.594 523.039V520.445H624.172V523.039H627.594Z" fill="#424242"/>
<rect x="564.5" y="432.5" width="114" height="118" rx="4.5" stroke="#002154"/>
<rect x="705.5" y="432.5" width="114" height="118" rx="4.5" fill="white"/>
<path d="M705 437C705 434.239 707.239 432 710 432H815C817.761 432 820 434.239 820 437V467H705V437Z" fill="#002154"/>
<path d="M752.226 443.511C751.669 444.308 751.145 444.979 750.652 445.523L749.29 444.715C749.442 444.539 749.765 444.138 750.257 443.511H744.588C744.037 444.144 743.51 444.671 743.006 445.093L741.784 444.047C742.716 443.373 743.609 442.354 744.465 440.988L745.941 441.489C745.889 441.694 745.774 441.905 745.599 442.122H752.226V443.511ZM741.854 443.309H737.012V441.867H741.854V443.309ZM752.542 446.675L751.786 448.116C751.323 448.022 750.802 447.873 750.222 447.668V454.436H742.628L743.401 455.332C741.708 456.111 739.71 456.688 737.407 457.063L736.634 455.622C738.345 455.417 739.982 455.021 741.547 454.436H738.901V447.633H742.303L741.617 446.64C743.721 446.106 745.288 445.172 746.319 443.836L747.954 444.196C747.778 444.519 747.646 444.721 747.559 444.803C748.836 445.629 750.497 446.253 752.542 446.675ZM750.046 447.633C748.839 447.24 747.667 446.663 746.53 445.901C745.78 446.581 744.805 447.158 743.604 447.633H750.046ZM748.604 449.54V448.907H740.58V449.54H748.604ZM748.604 451.377V450.709H740.58V451.377H748.604ZM748.604 453.249V452.546H740.58V453.249H748.604ZM742.013 446.174H736.774V444.697H742.013V446.174ZM752.437 455.745L751.575 457.134C750.005 456.63 748.247 456.264 746.302 456.035L747.128 454.682C749.026 454.846 750.796 455.2 752.437 455.745ZM760.558 444.17H754.722V442.72H757.024C756.931 442.444 756.74 442.072 756.453 441.604L758.035 441.006C758.352 441.598 758.615 442.169 758.826 442.72H760.558V444.17ZM770.604 452.704C770.521 453.636 770.357 454.491 770.111 455.271C769.871 456.044 769.637 456.527 769.408 456.721C769.186 456.914 768.928 457.011 768.635 457.011C768.277 457.011 767.967 456.873 767.703 456.598C767.445 456.328 767.196 455.525 766.956 454.189C766.722 452.854 766.604 451.652 766.604 450.586V443.08H764.17V447.932H766.104V449.487H764.17V456.932H762.623V449.487H760.953V447.932H762.623V443.08H761.164V441.568H768.151V450.946C768.151 452.341 768.345 453.688 768.731 454.989C768.954 454.169 769.098 453.114 769.162 451.825L770.604 452.704ZM760.162 446.842H755.152V445.4H760.162V446.842ZM760.162 449.47H755.152V448.046H760.162V449.47ZM760.18 456.483H758.598V455.675H756.708V456.914H755.152V450.674H760.18V456.483ZM758.598 454.198V452.168H756.708V454.198H758.598ZM787.971 446.121H786.389V443.994H774.761V446.191H773.152V442.553H779.674C779.393 442.084 779.146 441.706 778.936 441.419L780.553 441.023C780.793 441.381 781.106 441.891 781.493 442.553H787.971V446.121ZM788.419 456.413H772.774V455.007H779.779V453.337H773.82V451.913H779.779V450.454C778.32 450.56 776.527 450.604 774.4 450.586L774.093 449.232C775.353 448.904 776.659 448.058 778.013 446.692H775.297V445.286H785.826V446.692H780.228C779.19 447.776 778.188 448.6 777.222 449.162C778.985 449.15 781.171 449.001 783.778 448.714C783.614 448.556 783.213 448.26 782.574 447.826L783.813 446.947C785.583 448.096 786.896 449.145 787.751 450.094L786.6 451.157C786.225 450.747 785.806 450.34 785.343 449.936C784.054 450.07 782.738 450.19 781.396 450.296V451.913H787.426V453.337H781.396V455.007H788.419V456.413Z" fill="white"/>
<path d="M737.141 496.062L736.375 496.32C736.318 496.029 736.237 495.724 736.133 495.406C734.518 495.854 733.099 496.19 731.875 496.414L731.617 495.523C732.794 494.466 733.807 493.255 734.656 491.891C733.25 492.12 732.354 492.258 731.969 492.305L731.75 491.508C732.76 490.279 733.617 488.727 734.32 486.852L735.094 487.102C734.536 488.602 733.789 490.021 732.852 491.359C733.565 491.302 734.333 491.19 735.156 491.023C735.578 490.352 735.951 489.669 736.273 488.977L737.031 489.281C735.682 491.943 734.299 493.974 732.883 495.375C733.758 495.24 734.755 495.005 735.875 494.672C735.745 494.276 735.602 493.914 735.445 493.586L736.164 493.328C736.57 494.167 736.896 495.078 737.141 496.062ZM745.188 499.648C745.188 499.919 745.096 500.161 744.914 500.375C744.732 500.594 744.518 500.727 744.273 500.773C744.029 500.826 743.544 500.839 742.82 500.812L742.469 499.938C742.807 499.948 743.099 499.953 743.344 499.953C743.823 499.953 744.115 499.922 744.219 499.859C744.323 499.797 744.375 499.685 744.375 499.523V488.062H738.305V500.797H737.492V487.281H745.188V499.648ZM743.906 492.047H738.773V491.266H740.055C739.883 490.635 739.62 489.958 739.266 489.234L740.023 488.93C740.352 489.638 740.648 490.417 740.914 491.266H741.812C742.188 490.599 742.544 489.81 742.883 488.898L743.617 489.188C743.471 489.63 743.174 490.323 742.727 491.266H743.906V492.047ZM743.906 494.961H740.484V497.328C740.484 497.604 740.612 497.742 740.867 497.742H743.688V498.492H740.789C740.044 498.492 739.672 498.109 739.672 497.344V494.961H738.773V494.195H741.266C741.141 493.799 740.938 493.312 740.656 492.734L741.445 492.461C741.628 492.857 741.857 493.435 742.133 494.195H743.906V494.961ZM737.109 499.469L736.344 499.742C736.255 498.982 736.023 498.029 735.648 496.883L736.406 496.641C736.755 497.661 736.99 498.604 737.109 499.469ZM735.234 500.211L734.406 500.367C734.359 499.331 734.214 498.221 733.969 497.039L734.742 496.914C734.987 497.935 735.151 499.034 735.234 500.211ZM733.219 497.07C733.036 498.404 732.737 499.669 732.32 500.867L731.523 500.516C731.914 499.562 732.229 498.362 732.469 496.914L733.219 497.07ZM761.602 493.727L761.094 494.477C759.729 493.961 758.513 493.354 757.445 492.656C756.477 493.385 755.169 494.01 753.523 494.531L752.977 493.758C754.544 493.31 755.799 492.776 756.742 492.156C756.049 491.557 755.451 490.833 754.945 489.984C754.409 490.438 753.977 490.763 753.648 490.961L752.992 490.336C754.633 489.362 755.771 488.167 756.406 486.75L757.219 487.008C757.042 487.424 756.828 487.826 756.578 488.211H760.625V488.961C759.901 490.258 759.081 491.302 758.164 492.094C759.138 492.729 760.284 493.273 761.602 493.727ZM759.586 488.977H755.953C755.922 489.029 755.859 489.109 755.766 489.219C755.672 489.323 755.612 489.391 755.586 489.422C756.049 490.318 756.674 491.044 757.461 491.602C758.294 490.914 759.003 490.039 759.586 488.977ZM753.281 498.898C751.531 499.586 749.693 500.193 747.766 500.719L747.539 499.875C747.914 499.786 748.198 499.706 748.391 499.633V493.117H749.188V499.391C749.411 499.349 749.854 499.221 750.516 499.008V491.922H748.211V487.375H752.789V491.922H751.328V494.383H753.094V495.203H751.328V498.719C751.974 498.516 752.625 498.266 753.281 497.969V498.898ZM751.953 491.133V488.18H749.047V491.133H751.953ZM760.453 500.812H759.617V500.078H755.203V500.812H754.359V494.945H760.453V500.812ZM759.617 499.281V495.758H755.203V499.281H759.617ZM769.25 489.266H763.586V488.43H766.086C765.945 487.966 765.732 487.497 765.445 487.023L766.18 486.688C766.497 487.203 766.758 487.784 766.961 488.43H769.25V489.266ZM777.445 492.625H775.891C775.125 492.625 774.742 492.258 774.742 491.523V488.078H771.922C771.896 489.552 771.698 490.648 771.328 491.367C770.964 492.081 770.458 492.643 769.812 493.055L769.188 492.477C769.823 492.076 770.31 491.526 770.648 490.828C770.992 490.125 771.151 488.943 771.125 487.281H775.539V491.281C775.539 491.641 775.716 491.82 776.07 491.82H777.445V492.625ZM768.82 491.586H763.906V490.781H768.82V491.586ZM768.805 493.938H763.891V493.133H768.805V493.938ZM777.508 500.18L777.031 500.867C775.411 500.331 774.161 499.716 773.281 499.023C772.255 499.753 770.977 500.339 769.445 500.781L768.945 500.094C770.555 499.62 771.766 499.076 772.578 498.461C771.474 497.445 770.669 496.086 770.164 494.383H769.617V493.57H776.32V494.383C775.633 496.253 774.833 497.617 773.922 498.477C774.828 499.128 776.023 499.695 777.508 500.18ZM775.414 494.383H771.016C771.568 495.956 772.318 497.141 773.266 497.938C774.219 497.057 774.935 495.872 775.414 494.383ZM768.578 500.477H767.75V499.602H764.852V500.781H764.023V495.453H768.578V500.477ZM767.75 498.781V496.305H764.852V498.781H767.75ZM783.062 486.898L782.18 489.859V500.812H781.352V491.844C780.878 492.812 780.44 493.591 780.039 494.18L779.461 493.523C780.643 491.737 781.581 489.432 782.273 486.609L783.062 486.898ZM793.477 491.555H786.406C786.109 492.086 785.836 492.518 785.586 492.852H792.531V499.602C792.531 499.841 792.464 500.073 792.328 500.297C792.193 500.521 792.01 500.672 791.781 500.75C791.557 500.828 791.099 500.854 790.406 500.828L790.07 500.031C790.424 500.047 790.727 500.055 790.977 500.055C791.492 500.055 791.75 499.872 791.75 499.508V497.875H789.125V500.641H788.32V497.875H785.367C785.023 499.052 784.464 500.06 783.688 500.898L783.109 500.352C784.333 498.997 784.945 497.339 784.945 495.375V493.648C784.383 494.383 783.755 495.044 783.062 495.633L782.516 495.055C783.688 494.055 784.695 492.888 785.539 491.555H782.898V490.766H785.906V489.188H783.25V488.383H785.906V486.828H786.727V488.383H789.781V486.828H790.609V488.383H793.141V489.188H790.609V490.766H793.477V491.555ZM789.781 490.766V489.188H786.727V490.766H789.781ZM791.75 494.945V493.617H789.125V494.945H791.75ZM788.32 494.945V493.617H785.75V494.945H788.32ZM791.75 497.086V495.727H789.125V497.086H791.75ZM788.32 497.086V495.727H785.719C785.698 496.242 785.643 496.695 785.555 497.086H788.32ZM745.25 512.766C744.708 513.531 744.208 514.135 743.75 514.578L743.141 514C743.552 513.583 743.94 513.13 744.305 512.641H738.453C738.021 513.188 737.534 513.667 736.992 514.078L736.438 513.523C737.354 512.836 738.128 511.896 738.758 510.703L739.539 510.977L739.031 511.859H745.25V512.766ZM736.039 512.305H732.008V511.539H736.039V512.305ZM745.586 515.695L745.234 516.477C743.188 516.174 741.594 515.552 740.453 514.609C739.536 515.49 738.315 516.096 736.789 516.43L736.359 515.664C738.323 515.362 739.677 514.562 740.422 513.266L741.297 513.422C741.266 513.552 741.143 513.76 740.93 514.047C742.008 514.932 743.56 515.482 745.586 515.695ZM736.164 515.188H731.688V514.383H736.164V515.188ZM743.188 522.562H736.836L737.234 523.086C735.583 523.919 733.833 524.529 731.984 524.914L731.57 524.156C733.284 523.87 734.911 523.339 736.453 522.562H733.969V516.703H743.188V522.562ZM742.359 518.367V517.453H734.82V518.367H742.359ZM742.359 520.078V519.086H734.82V520.078H742.359ZM742.359 521.805V520.797H734.82V521.805H742.359ZM745.492 524.195L745.109 524.93C743.552 524.346 742.005 523.898 740.469 523.586L740.867 522.867C742.529 523.206 744.07 523.648 745.492 524.195ZM752.852 513.25H747.539V512.461H750.023C749.878 512.065 749.646 511.586 749.328 511.023L750.055 510.672C750.372 511.234 750.648 511.831 750.883 512.461H752.852V513.25ZM761.953 521.203C761.839 522.224 761.638 523.068 761.352 523.734C761.07 524.401 760.75 524.734 760.391 524.734C759.833 524.734 759.453 524.177 759.25 523.062C759.047 521.943 758.945 521.013 758.945 520.273V512.031H755.75V517.055H758.273V517.82H755.75V524.852H754.914V517.82H753.062V517.055H754.914V512.031H753.188V511.266H759.766V519.711C759.766 521.086 759.846 522.12 760.008 522.812C760.174 523.505 760.294 523.852 760.367 523.852C760.44 523.852 760.576 523.513 760.773 522.836C760.971 522.159 761.104 521.464 761.172 520.75L761.953 521.203ZM752.391 515.586H747.922V514.797H752.391V515.586ZM752.344 517.875H747.922V517.117H752.344V517.875ZM752.344 524.562H751.492V523.602H748.898V524.812H748.055V519.453H752.344V524.562ZM751.492 522.828V520.242H748.898V522.828H751.492ZM777.25 512.766C776.708 513.531 776.208 514.135 775.75 514.578L775.141 514C775.552 513.583 775.94 513.13 776.305 512.641H770.453C770.021 513.188 769.534 513.667 768.992 514.078L768.438 513.523C769.354 512.836 770.128 511.896 770.758 510.703L771.539 510.977L771.031 511.859H777.25V512.766ZM768.039 512.305H764.008V511.539H768.039V512.305ZM777.586 515.695L777.234 516.477C775.188 516.174 773.594 515.552 772.453 514.609C771.536 515.49 770.315 516.096 768.789 516.43L768.359 515.664C770.323 515.362 771.677 514.562 772.422 513.266L773.297 513.422C773.266 513.552 773.143 513.76 772.93 514.047C774.008 514.932 775.56 515.482 777.586 515.695ZM768.164 515.188H763.688V514.383H768.164V515.188ZM775.188 522.562H768.836L769.234 523.086C767.583 523.919 765.833 524.529 763.984 524.914L763.57 524.156C765.284 523.87 766.911 523.339 768.453 522.562H765.969V516.703H775.188V522.562ZM774.359 518.367V517.453H766.82V518.367H774.359ZM774.359 520.078V519.086H766.82V520.078H774.359ZM774.359 521.805V520.797H766.82V521.805H774.359ZM777.492 524.195L777.109 524.93C775.552 524.346 774.005 523.898 772.469 523.586L772.867 522.867C774.529 523.206 776.07 523.648 777.492 524.195ZM786.07 516.812H783.602V524.797H782.773V516.812H779.812V516.047H782.773V510.766H783.602V516.047H786.07V516.812ZM793.57 520.445L791.922 520.766V524.828H791.109V520.93L786.148 521.859L786.039 521.055L791.109 520.094V510.812H791.922V519.938L793.461 519.648L793.57 520.445ZM786.273 512.195C785.93 513.378 785.542 514.375 785.109 515.188L784.344 514.812C784.812 514.026 785.211 513.057 785.539 511.906L786.273 512.195ZM781.828 514.766L781.031 515.086C780.849 514.305 780.458 513.352 779.859 512.227L780.578 511.906C781.182 512.979 781.599 513.932 781.828 514.766ZM790.227 514.18L789.602 514.797C788.956 514.068 788.099 513.339 787.031 512.609L787.586 512.016C788.471 512.578 789.352 513.299 790.227 514.18ZM789.953 518.492L789.328 519.133C788.786 518.326 787.914 517.435 786.711 516.461L787.312 515.875C788.349 516.714 789.229 517.586 789.953 518.492ZM786.148 520.445L785.312 520.719C785.188 519.995 784.857 519.083 784.32 517.984L785.062 517.727C785.599 518.831 785.961 519.737 786.148 520.445ZM781.922 517.969C781.547 519.792 781.052 521.294 780.438 522.477L779.633 522.125C780.258 520.974 780.771 519.508 781.172 517.727L781.922 517.969Z" fill="#424242"/>
<rect x="705.5" y="432.5" width="114" height="118" rx="4.5" stroke="#002154"/>
<rect x="600.5" y="101.5" width="115" height="43" rx="4.5" fill="white"/>
<path d="M632.625 119.898H631.25V118.055H620.797V119.898H619.406V116.82H625.188C625.125 116.586 625.005 116.284 624.828 115.914L626.336 115.719C626.523 116.141 626.656 116.508 626.734 116.82H632.625V119.898ZM633.039 124.312L632.547 125.547C632.167 125.391 631.669 125.214 631.055 125.016V129.781H629.617V129.242H622.492V129.781H621.055V125.258C620.716 125.372 620.247 125.51 619.648 125.672L618.961 124.469C620.919 124.026 622.604 123.409 624.016 122.617H619.438V121.445H622.352C622.18 121.253 621.909 121.039 621.539 120.805L622.703 120.172C623.156 120.49 623.523 120.797 623.805 121.094L623.172 121.445H625.344V119.914L621.57 120.039L621.117 118.859C621.482 118.87 621.862 118.875 622.258 118.875C624.492 118.875 627.138 118.714 630.195 118.391L630.688 119.492C629.568 119.617 628.255 119.729 626.75 119.828V121.445H628.961L628.078 121C628.568 120.641 628.984 120.273 629.328 119.898L630.562 120.469C630.297 120.776 629.966 121.102 629.57 121.445H632.672V122.617H626.867C629.289 123.18 631.346 123.745 633.039 124.312ZM625.344 124.523V123.242C624.651 123.69 623.846 124.117 622.93 124.523H625.344ZM629.617 124.523C628.773 124.242 627.818 123.958 626.75 123.672V124.523H629.617ZM629.617 126.344V125.641H626.75V126.344H629.617ZM625.344 126.344V125.641H622.492V126.344H625.344ZM629.617 128.133V127.398H626.75V128.133H629.617ZM625.344 128.133V127.398H622.492V128.133H625.344ZM641.727 118.555H635.07V117.289H637.711C637.539 116.841 637.341 116.409 637.117 115.992L638.609 115.719C638.854 116.151 639.089 116.674 639.312 117.289H641.727V118.555ZM649.039 121.656H646.125V129.797H644.672V121.656H641.82V120.25H644.672V115.852H646.125V120.25H649.039V121.656ZM640.977 120.938H635.648V119.656H640.977V120.938ZM640.977 123.242H635.648V121.977H640.977V123.242ZM641.008 129.594H639.617V128.789H637.133V129.797H635.727V124.297H641.008V129.594ZM639.617 127.516V125.609H637.133V127.516H639.617ZM665.023 122.617L664.156 123.688C662.589 122.833 660.776 122.102 658.719 121.492V122.875H657.359V120.859C655.87 122.005 654.008 122.974 651.773 123.766L650.977 122.602C653.174 121.862 654.94 121.018 656.273 120.07H651.266V118.742H657.359V117.852C655.729 117.935 654.203 117.977 652.781 117.977L652.32 116.664C652.831 116.674 653.331 116.68 653.82 116.68C657.294 116.68 660.357 116.391 663.008 115.812L663.844 116.969C662.792 117.229 661.083 117.484 658.719 117.734V118.742H664.867L664.852 120.07H658.719V120.25C661.193 120.88 663.294 121.669 665.023 122.617ZM664.883 125.625H661.203C660.812 126.245 660.38 126.779 659.906 127.227C662.432 127.924 664.073 128.424 664.828 128.727L664.156 129.945C662.802 129.383 660.953 128.807 658.609 128.219C656.974 129.198 654.583 129.734 651.438 129.828L650.945 128.508C653.232 128.529 655.099 128.276 656.547 127.75C655.417 127.521 654.354 127.341 653.359 127.211C653.75 126.805 654.167 126.276 654.609 125.625H651.203V124.312H655.453C655.745 123.87 656.023 123.401 656.289 122.906L657.742 123.211C657.57 123.555 657.357 123.922 657.102 124.312H660.352L660.797 123.383L662.078 123.766C662.047 123.901 661.974 124.083 661.859 124.312H664.883V125.625ZM659.484 125.625H656.289C656.185 125.812 655.997 126.073 655.727 126.406L658.258 126.844C658.659 126.562 659.068 126.156 659.484 125.625ZM679.234 119.352H668.945V116.25H679.234V119.352ZM677.82 118.281V117.367H670.414V118.281H677.82ZM679.586 127.258H672.141L672.672 127.719C671.448 128.599 669.839 129.336 667.844 129.93L667.055 128.789C668.633 128.341 669.914 127.831 670.898 127.258H668.594V120.266H679.586V127.258ZM678.18 122.266V121.367H670.031V122.266H678.18ZM678.18 124.203V123.289H670.031V124.203H678.18ZM678.18 126.172V125.242H670.031V126.172H678.18ZM681.148 128.789L680.445 129.977C679.034 129.404 677.477 128.971 675.773 128.68L676.43 127.492C678.227 127.784 679.799 128.216 681.148 128.789ZM697.266 118.633L696.703 119.898C695.396 119.576 694.073 119.138 692.734 118.586V119.18H687.508V118.555C686.273 119.102 684.966 119.56 683.586 119.93L682.883 118.773C686.034 117.961 688.359 116.922 689.859 115.656L691.422 116.039C691.312 116.174 691.216 116.276 691.133 116.344C692.617 117.281 694.661 118.044 697.266 118.633ZM691.617 118.07C690.758 117.591 690.234 117.294 690.047 117.18C689.609 117.508 689.109 117.805 688.547 118.07H691.617ZM695.805 123.961H684.383V119.828H695.805V123.961ZM694.398 122.844V120.969H690.781V122.844H694.398ZM693.789 121.719C693.435 122.016 692.987 122.326 692.445 122.648L691.453 121.977C692.078 121.581 692.516 121.292 692.766 121.109L693.789 121.719ZM689.375 122.844V120.969H685.773V122.844H689.375ZM688.672 122.055L687.664 122.695C687.279 122.372 686.836 122.057 686.336 121.75L687.328 121.078C687.656 121.26 688.104 121.586 688.672 122.055ZM695.117 129.781H693.711V129.211H686.547V129.781H685.086V124.664H695.117V129.781ZM693.711 126.406V125.75H686.547V126.406H693.711ZM693.711 128.102V127.398H686.547V128.102H693.711Z" fill="#002154"/>
<rect x="600.5" y="101.5" width="115" height="43" rx="4.5" stroke="#002154"/>
<rect x="600.5" y="161.5" width="115" height="43" rx="4.5" fill="white"/>
<path d="M632.992 178.172H629.617V179.062H628.227V178.172H626.398V176.953H628.227V175.812H629.617V176.953H632.992V178.172ZM626.578 186.07H623.68V189.852H622.305V186.07H619.117V184.805H622.305V183.898H619.469V182.695H620.977C620.732 182.128 620.513 181.664 620.32 181.305H619.508V180.07H621.773C621.721 179.904 621.578 179.599 621.344 179.156L622.75 178.789V178.172H619.055V176.953H622.75V175.852H624.156V176.953H625.727V178.172H624.156V179.047H622.961C623.018 179.172 623.151 179.513 623.359 180.07H626.367V181.305H625.508C625.378 181.617 625.164 182.081 624.867 182.695H626.352V183.898H623.68V184.805H626.578V186.07ZM624.078 181.305H621.859C622.062 181.706 622.253 182.169 622.43 182.695H623.391C623.495 182.565 623.724 182.102 624.078 181.305ZM633.055 184.484H631.633V189.828H630.242V184.484H628.547C628.599 186.703 628.172 188.529 627.266 189.961L626.047 189.242C626.818 188.06 627.203 186.753 627.203 185.32V180.234C629.057 180.062 630.716 179.716 632.18 179.195L632.961 180.328C631.878 180.76 630.406 181.102 628.547 181.352V183.18H633.055V184.484ZM626.156 188.203L625.086 188.82C624.867 188.159 624.547 187.531 624.125 186.938L625.148 186.375C625.638 187.005 625.974 187.615 626.156 188.203ZM621.844 186.969C621.349 188.026 620.771 188.906 620.109 189.609L619.07 188.82C619.69 188.164 620.24 187.354 620.719 186.391L621.844 186.969ZM648.734 189.812H647.523V183.703L646.688 184.055C646.62 182.977 646.461 181.974 646.211 181.047V189.641H645.008V183.609L644.156 184.023C644.104 182.982 643.966 182.026 643.742 181.156V183.211C643.742 184.883 643.633 186.237 643.414 187.273C643.195 188.31 642.805 189.169 642.242 189.852L641.203 189.031C642.062 187.885 642.492 186.104 642.492 183.688L641.57 183.945C641.466 182.805 641.268 181.609 640.977 180.359L641.844 180.07C642.094 180.914 642.31 181.917 642.492 183.078V175.898H643.742V180.359L644.398 180.117C644.602 180.815 644.805 181.828 645.008 183.156V176.117H646.211V180.359L646.883 180.07C647.138 180.904 647.352 181.854 647.523 182.922V175.898H648.734V189.812ZM641.086 177.609H639.234V179.211H640.797V189.812H639.695V188.984H636.516V189.812H635.344V179.211H636.93V177.609H635.086V176.344H641.086V177.609ZM638.289 179.211V177.609H637.859V179.211H638.289ZM639.695 182.969V180.453H639.234V182.742C639.234 182.893 639.302 182.969 639.438 182.969H639.695ZM636.93 180.453H636.516V183.609C636.792 182.896 636.93 181.844 636.93 180.453ZM639.695 187.734V184.188H639.102C638.878 184.188 638.685 184.094 638.523 183.906C638.367 183.719 638.289 183.482 638.289 183.195V180.453H637.859C637.891 182.229 637.654 183.659 637.148 184.742L636.516 184.055V187.734H639.695ZM639.297 186.508H636.945V185.336H639.297V186.508ZM665.023 182.617L664.156 183.688C662.589 182.833 660.776 182.102 658.719 181.492V182.875H657.359V180.859C655.87 182.005 654.008 182.974 651.773 183.766L650.977 182.602C653.174 181.862 654.94 181.018 656.273 180.07H651.266V178.742H657.359V177.852C655.729 177.935 654.203 177.977 652.781 177.977L652.32 176.664C652.831 176.674 653.331 176.68 653.82 176.68C657.294 176.68 660.357 176.391 663.008 175.812L663.844 176.969C662.792 177.229 661.083 177.484 658.719 177.734V178.742H664.867L664.852 180.07H658.719V180.25C661.193 180.88 663.294 181.669 665.023 182.617ZM664.883 185.625H661.203C660.812 186.245 660.38 186.779 659.906 187.227C662.432 187.924 664.073 188.424 664.828 188.727L664.156 189.945C662.802 189.383 660.953 188.807 658.609 188.219C656.974 189.198 654.583 189.734 651.438 189.828L650.945 188.508C653.232 188.529 655.099 188.276 656.547 187.75C655.417 187.521 654.354 187.341 653.359 187.211C653.75 186.805 654.167 186.276 654.609 185.625H651.203V184.312H655.453C655.745 183.87 656.023 183.401 656.289 182.906L657.742 183.211C657.57 183.555 657.357 183.922 657.102 184.312H660.352L660.797 183.383L662.078 183.766C662.047 183.901 661.974 184.083 661.859 184.312H664.883V185.625ZM659.484 185.625H656.289C656.185 185.812 655.997 186.073 655.727 186.406L658.258 186.844C658.659 186.562 659.068 186.156 659.484 185.625ZM679.234 179.352H668.945V176.25H679.234V179.352ZM677.82 178.281V177.367H670.414V178.281H677.82ZM679.586 187.258H672.141L672.672 187.719C671.448 188.599 669.839 189.336 667.844 189.93L667.055 188.789C668.633 188.341 669.914 187.831 670.898 187.258H668.594V180.266H679.586V187.258ZM678.18 182.266V181.367H670.031V182.266H678.18ZM678.18 184.203V183.289H670.031V184.203H678.18ZM678.18 186.172V185.242H670.031V186.172H678.18ZM681.148 188.789L680.445 189.977C679.034 189.404 677.477 188.971 675.773 188.68L676.43 187.492C678.227 187.784 679.799 188.216 681.148 188.789ZM697.266 178.633L696.703 179.898C695.396 179.576 694.073 179.138 692.734 178.586V179.18H687.508V178.555C686.273 179.102 684.966 179.56 683.586 179.93L682.883 178.773C686.034 177.961 688.359 176.922 689.859 175.656L691.422 176.039C691.312 176.174 691.216 176.276 691.133 176.344C692.617 177.281 694.661 178.044 697.266 178.633ZM691.617 178.07C690.758 177.591 690.234 177.294 690.047 177.18C689.609 177.508 689.109 177.805 688.547 178.07H691.617ZM695.805 183.961H684.383V179.828H695.805V183.961ZM694.398 182.844V180.969H690.781V182.844H694.398ZM693.789 181.719C693.435 182.016 692.987 182.326 692.445 182.648L691.453 181.977C692.078 181.581 692.516 181.292 692.766 181.109L693.789 181.719ZM689.375 182.844V180.969H685.773V182.844H689.375ZM688.672 182.055L687.664 182.695C687.279 182.372 686.836 182.057 686.336 181.75L687.328 181.078C687.656 181.26 688.104 181.586 688.672 182.055ZM695.117 189.781H693.711V189.211H686.547V189.781H685.086V184.664H695.117V189.781ZM693.711 186.406V185.75H686.547V186.406H693.711ZM693.711 188.102V187.398H686.547V188.102H693.711Z" fill="#002154"/>
<rect x="600.5" y="161.5" width="115" height="43" rx="4.5" stroke="#002154"/>
<rect x="600.5" y="221.5" width="115" height="43" rx="4.5" fill="white"/>
<path d="M640.688 243.781L639.711 244.742C639.258 243.951 638.927 243.417 638.719 243.141V249.812H637.328V243.336C636.865 244.664 636.341 245.714 635.758 246.484L634.992 245.031C635.852 243.99 636.594 242.635 637.219 240.969H635.07V239.656H637.328V237.641C636.651 237.776 636.086 237.872 635.633 237.93L635.008 236.695C636.721 236.466 638.198 236.109 639.438 235.625L640.141 236.789C639.677 236.977 639.203 237.138 638.719 237.273V239.656H639.891V240.969H638.719V241.305C639.536 242.154 640.193 242.979 640.688 243.781ZM649.117 239.141C649.06 239.479 648.948 239.768 648.781 240.008C648.62 240.242 648.44 240.401 648.242 240.484C648.044 240.568 647.474 240.609 646.531 240.609C645.625 240.609 645.049 240.542 644.805 240.406C644.565 240.266 644.445 240.021 644.445 239.672V238.328H643.664C643.237 239.214 642.529 239.992 641.539 240.664H642.578V241.258H648.18V242.312H642.578V242.742C642.578 242.924 642.661 243.016 642.828 243.016H648.719V244.07H642.273C641.956 244.07 641.695 243.966 641.492 243.758C641.289 243.544 641.188 243.286 641.188 242.984V240.859C641.073 240.932 640.961 240.99 640.852 241.031L640.141 239.883C640.99 239.492 641.656 238.974 642.141 238.328H640.227V237.125H642.734C642.833 236.833 642.935 236.391 643.039 235.797L644.352 235.93C644.32 236.258 644.24 236.656 644.109 237.125H646.641C646.312 236.938 645.885 236.747 645.359 236.555L646.109 235.672C646.62 235.807 647.214 236.091 647.891 236.523L647.328 237.125H648.914V238.328H645.773V239.211C645.773 239.383 645.859 239.466 646.031 239.461L647.328 239.445C647.562 239.445 647.711 239.211 647.773 238.742L649.117 239.141ZM648.32 249.812H646.914V249.383H642.195V249.812H640.812V244.844H648.32V249.812ZM646.914 246.602V245.914H642.195V246.602H646.914ZM646.914 248.312V247.562H642.195V248.312H646.914ZM664.945 238.844H660.781C660.214 239.865 659.526 240.771 658.719 241.562C659.552 241.526 660.401 241.435 661.266 241.289C661.641 240.763 661.971 240.224 662.258 239.672L663.508 240.172C662.096 243.057 659.802 245.232 656.625 246.695L655.789 245.578C657.487 244.802 658.906 243.857 660.047 242.742C659.057 242.867 658.023 242.964 656.945 243.031L656.625 241.883C657.443 241.424 658.284 240.411 659.148 238.844H656.531V237.477H659.953C659.745 237.013 659.466 236.555 659.117 236.102L660.578 235.719C660.88 236.13 661.227 236.716 661.617 237.477H664.945V238.844ZM656.383 242.859L655.297 243.828C655.104 243.318 654.885 242.865 654.641 242.469V249.797H653.266V242.875C652.849 244.031 652.315 245.039 651.664 245.898L650.914 244.359C651.784 243.297 652.547 241.862 653.203 240.055H651.102V238.711H653.266V235.883H654.641V238.711H656.016V240.055H654.641V240.328C655.333 241.156 655.914 242 656.383 242.859ZM665.117 248.953L664.109 249.883C663.151 248.862 662.128 247.982 661.039 247.242C659.534 248.378 657.919 249.24 656.195 249.828L655.359 248.633C659.135 247.487 661.904 245.294 663.664 242.055L664.914 242.648C664.107 244.008 663.151 245.24 662.047 246.344C663.12 247.109 664.143 247.979 665.117 248.953ZM680.641 240.219H679.234V238.328H668.898V240.281H667.469V237.047H673.266C673.016 236.63 672.797 236.294 672.609 236.039L674.047 235.688C674.26 236.005 674.539 236.458 674.883 237.047H680.641V240.219ZM681.039 249.367H667.133V248.117H673.359V246.633H668.062V245.367H673.359V244.07C672.062 244.164 670.469 244.203 668.578 244.188L668.305 242.984C669.424 242.693 670.586 241.94 671.789 240.727H669.375V239.477H678.734V240.727H673.758C672.836 241.69 671.945 242.422 671.086 242.922C672.654 242.911 674.596 242.779 676.914 242.523C676.768 242.383 676.411 242.12 675.844 241.734L676.945 240.953C678.518 241.974 679.685 242.906 680.445 243.75L679.422 244.695C679.089 244.331 678.716 243.969 678.305 243.609C677.159 243.729 675.99 243.836 674.797 243.93V245.367H680.156V246.633H674.797V248.117H681.039V249.367Z" fill="#002154"/>
<rect x="600.5" y="221.5" width="115" height="43" rx="4.5" stroke="#002154"/>
<rect x="129.5" y="208.5" width="115" height="43" rx="4.5" fill="white"/>
<path d="M170.117 224.828H166.484V225.555H165.047V224.828H163.516V223.742H165.047V222.898H166.484V223.742H170.117V224.828ZM162.773 224.828H161.289V225.664H159.828V224.828H156.148V223.742H159.828V222.898H161.289V223.742H162.773V224.828ZM170.117 236.656H156.188V235.664H162.438V234.93H156.922V234H162.438V233.328H157.398V229.328H162.438V228.688H156.312V227.695H162.438V227.07C161.74 227.086 161.031 227.094 160.312 227.094C159.365 227.094 158.49 227.081 157.688 227.055L157.414 226.094C159.565 226.12 160.818 226.133 161.172 226.133C163.661 226.133 166.021 225.951 168.25 225.586L168.922 226.531C167.161 226.786 165.477 226.951 163.867 227.023V227.695H169.961V228.688H163.867V229.328H168.922V233.328H163.867V234H169.414V234.93H163.867V235.664H170.117V236.656ZM167.531 230.914V230.258H163.867V230.914H167.531ZM162.438 230.914V230.258H158.789V230.914H162.438ZM167.562 232.414V231.742H163.867V232.414H167.562ZM162.438 232.414V231.742H158.789V232.414H162.438ZM186.055 232.562H184.938V234.594H179.781V235.586C179.781 235.898 179.68 236.161 179.477 236.375C179.279 236.594 179.047 236.724 178.781 236.766C178.521 236.807 177.724 236.828 176.391 236.828L175.961 235.617L178.102 235.57C178.159 235.57 178.219 235.539 178.281 235.477C178.344 235.409 178.375 235.344 178.375 235.281V234.594H173.109V233.523H178.375V232.562H172.133V231.484H178.375V230.609H173.109V229.539H178.375V228.688H173.383V225.695H178.375V224.828H172.266V223.727H178.375V222.828H179.781V223.727H185.867V224.828H179.781V225.695H184.789V228.688H179.781V229.539H184.938V231.484H186.055V232.562ZM183.336 227.648V226.719H179.781V227.648H183.336ZM178.375 227.648V226.719H174.82V227.648H178.375ZM183.531 231.484V230.609H179.781V231.484H183.531ZM183.531 233.523V232.562H179.781V233.523H183.531ZM202.008 230.961H191.414V234.961C192.393 234.753 193.508 234.417 194.758 233.953L194.859 235.391C193.146 235.979 191.529 236.443 190.008 236.781L189.609 235.602C189.844 235.461 189.961 235.268 189.961 235.023V230.961H188.086V229.633H190.312V223.117H201.062V224.398H191.781V225.328H200.219V226.562H191.781V227.508H200.219V228.688H191.781V229.633H202.008V230.961ZM202.133 235.539L201.445 236.867C199.529 236.414 198.031 235.831 196.953 235.117C195.875 234.404 194.867 233.365 193.93 232L195.18 231.312C195.612 232 196.148 232.667 196.789 233.312C197.945 232.672 198.901 231.995 199.656 231.281L200.742 232.211C199.758 233.049 198.846 233.698 198.008 234.156C198.977 234.755 200.352 235.216 202.133 235.539ZM217.641 227.219H216.234V225.328H205.898V227.281H204.469V224.047H210.266C210.016 223.63 209.797 223.294 209.609 223.039L211.047 222.688C211.26 223.005 211.539 223.458 211.883 224.047H217.641V227.219ZM218.039 236.367H204.133V235.117H210.359V233.633H205.062V232.367H210.359V231.07C209.062 231.164 207.469 231.203 205.578 231.188L205.305 229.984C206.424 229.693 207.586 228.94 208.789 227.727H206.375V226.477H215.734V227.727H210.758C209.836 228.69 208.945 229.422 208.086 229.922C209.654 229.911 211.596 229.779 213.914 229.523C213.768 229.383 213.411 229.12 212.844 228.734L213.945 227.953C215.518 228.974 216.685 229.906 217.445 230.75L216.422 231.695C216.089 231.331 215.716 230.969 215.305 230.609C214.159 230.729 212.99 230.836 211.797 230.93V232.367H217.156V233.633H211.797V235.117H218.039V236.367Z" fill="#002154"/>
<rect x="129.5" y="208.5" width="115" height="43" rx="4.5" stroke="#002154"/>
</svg>
