<?xml version="1.0" encoding="utf-8"?>
<!-- Generator: Adobe Illustrator 25.2.1, SVG Export Plug-In . SVG Version: 6.00 Build 0)  -->
<svg version="1.1" id="圖層_1" xmlns="http://www.w3.org/2000/svg" xmlns:xlink="http://www.w3.org/1999/xlink" x="0px" y="0px"
	 viewBox="0 0 30 30" style="enable-background:new 0 0 30 30;" xml:space="preserve">
<style type="text/css">
	.st0{clip-path:url(#SVGID_2_);}
	.st1{fill:#FFFFFF;}
	.st2{fill:#00437C;}
	.st3{fill:#E60012;}
</style>
<g>
	<defs>
		<rect id="SVGID_1_" width="29.8" height="30"/>
	</defs>
	<clipPath id="SVGID_2_">
		<use xlink:href="#SVGID_1_"  style="overflow:visible;"/>
	</clipPath>
	<g class="st0">
		<path class="st1" d="M23,12.2l-9.9,3L23,12.2L23,12.2z"/>
		<path class="st2" d="M23,12.2l-9.9,3L23,12.2L23,12.2z"/>
		<path class="st1" d="M28.4,22.3l-6.6,2H8.1L5,14.1L1.4,2.2L8.8,0h12.8l0.5,1.7l-12,3.6l1.4,4.5l9.9-3l0.6,2l1,3.3l-9.9,3l1.6,5.4
			L26.8,17L28.4,22.3z"/>
		<path class="st3" d="M29.8,0v6.5L22,8.9l-0.6-2l-9.9,3l-1.4-4.5l12-3.6L21.6,0H29.8z"/>
		<path class="st2" d="M29.8,6.5v17.8h-8l6.6-2L26.8,17l-12.1,3.7l-1.6-5.4l9.9-3v0l-1-3.3L29.8,6.5z"/>
		<path class="st3" d="M1.4,2.2L5,14.1l-5,1.5V0h8.8L1.4,2.2z"/>
		<path class="st2" d="M8.1,24.3H0v-8.7l5-1.5L8.1,24.3z"/>
		<path class="st2" d="M6.8,25.3l-1,1.8l-1-1.8H3.4v0l1.7,2.9v1.6h1.3v-1.6l1.8-2.9L6.8,25.3L6.8,25.3z"/>
		<path class="st2" d="M9.4,28.9V28h1.7v-0.9H9.4v-0.8h2.1v-0.9H8.2v4.5h3.4v-0.9L9.4,28.9L9.4,28.9z"/>
		<path class="st2" d="M1.3,28.9V28H3v-0.9H1.3v-0.8h2.1v-0.9H0v4.5h3.4v-0.9L1.3,28.9L1.3,28.9z"/>
		<path class="st2" d="M15.8,27.6c-0.2-0.2-0.6-0.4-1.1-0.5c-0.1,0-0.3-0.1-0.5-0.1c-0.7-0.1-1-0.3-1-0.5c0-0.1,0.1-0.3,0.2-0.4
			c0.1-0.1,0.3-0.1,0.5-0.1c0.3,0,0.5,0.1,0.6,0.2c0.1,0.1,0.2,0.3,0.2,0.5H16c0-0.5-0.2-0.8-0.6-1.1c-0.3-0.3-0.8-0.4-1.4-0.4
			c-0.6,0-1.1,0.1-1.5,0.4c-0.4,0.3-0.5,0.6-0.5,1.1c0,0.4,0.1,0.6,0.3,0.8c0.2,0.2,0.6,0.4,1.1,0.5c0.2,0,0.4,0.1,0.7,0.1
			s0.5,0.1,0.6,0.2c0.1,0,0.1,0.1,0.1,0.1c0,0.1,0.1,0.1,0.1,0.2c0,0.2-0.1,0.3-0.2,0.4c-0.2,0.1-0.4,0.2-0.6,0.2
			c-0.3,0-0.5-0.1-0.7-0.2c-0.1-0.1-0.2-0.3-0.2-0.5v-0.1h-1.3v0c0,0.5,0.2,0.9,0.6,1.1c0.4,0.3,0.9,0.4,1.6,0.4
			c0.7,0,1.2-0.1,1.6-0.4c0.4-0.3,0.6-0.7,0.6-1.1C16.1,28.1,16,27.8,15.8,27.6z"/>
		<path class="st2" d="M21.1,27.1c-0.2-0.2-0.5-0.3-0.8-0.3c-0.2,0-0.4,0.1-0.6,0.1c-0.2,0.1-0.3,0.2-0.4,0.4
			c-0.1-0.2-0.2-0.3-0.3-0.4c-0.1-0.1-0.3-0.1-0.5-0.1c-0.2,0-0.4,0.1-0.6,0.2c-0.2,0.1-0.3,0.3-0.4,0.4l0-0.5h-1.1v3h1.1v-1.5
			c0-0.2,0-0.4,0.1-0.5c0.1-0.1,0.2-0.2,0.3-0.2c0.1,0,0.2,0.1,0.3,0.1c0.1,0.1,0.1,0.3,0.1,0.5v1.6h1.1v-1.5c0-0.2,0-0.4,0.1-0.5
			c0.1-0.1,0.2-0.2,0.3-0.2c0.1,0,0.2,0.1,0.3,0.1c0.1,0.1,0.1,0.2,0.1,0.5v1.6h1.1V28C21.4,27.6,21.3,27.3,21.1,27.1z"/>
		<path class="st2" d="M24.8,29.5c0-0.1,0-0.3,0-0.4v-0.9c0-0.3,0-0.5-0.1-0.6c0-0.1-0.1-0.2-0.2-0.3c-0.1-0.2-0.3-0.3-0.5-0.4
			c-0.2-0.1-0.5-0.1-0.8-0.1c-0.5,0-0.9,0.1-1.1,0.3c-0.3,0.2-0.4,0.4-0.5,0.7h1.2c0-0.1,0.1-0.2,0.2-0.3c0.1-0.1,0.2-0.1,0.3-0.1
			s0.2,0,0.3,0.1c0.1,0.1,0.1,0.1,0.1,0.3c0,0.1,0,0.2-0.1,0.2c-0.1,0.1-0.2,0.1-0.4,0.1c0,0,0,0-0.1,0c-0.2,0-0.3,0-0.5,0
			c-0.4,0-0.7,0.1-0.8,0.3c-0.2,0.1-0.3,0.3-0.3,0.6c0,0.3,0.1,0.5,0.3,0.7c0.2,0.2,0.5,0.3,0.8,0.3c0.2,0,0.4-0.1,0.6-0.1
			c0.2-0.1,0.3-0.2,0.5-0.4c0,0.1,0,0.2,0.1,0.3c0,0.1,0,0.1,0,0.2H25C24.9,29.8,24.8,29.7,24.8,29.5z M23.5,29.2
			c-0.1,0.1-0.2,0.2-0.4,0.2c-0.1,0-0.2,0-0.3-0.1c-0.1-0.1-0.1-0.2-0.1-0.3c0-0.1,0-0.2,0.1-0.2c0.1-0.1,0.1-0.1,0.3-0.1
			c0,0,0.1,0,0.1,0c0.3-0.1,0.4-0.2,0.5-0.2c0,0.1,0,0.1,0,0.1c0,0,0,0.1,0,0.1C23.6,28.8,23.6,29,23.5,29.2z"/>
		<path class="st2" d="M27.4,26.8c-0.3,0-0.5,0.1-0.7,0.1c-0.2,0.1-0.4,0.3-0.5,0.5l0-0.5h-1.2v3h1.2v-1.1c0-0.3,0.1-0.5,0.2-0.6
			c0.1-0.1,0.3-0.2,0.6-0.2c0.1,0,0.1,0,0.2,0c0.1,0,0.2,0,0.3,0L27.4,26.8L27.4,26.8L27.4,26.8z"/>
		<path class="st2" d="M29.8,27.7v-0.8h-0.7V26H28v0.9h-0.4v0.8H28v1.3c0,0.4,0.1,0.7,0.2,0.8c0.1,0.1,0.4,0.2,0.8,0.2
			c0.1,0,0.3,0,0.4,0c0.1,0,0.3-0.1,0.4-0.1v-0.7c-0.1,0-0.1,0-0.2,0c-0.1,0-0.1,0-0.1,0c-0.1,0-0.2,0-0.2-0.1
			c0-0.1-0.1-0.3-0.1-0.6v-0.8L29.8,27.7L29.8,27.7z"/>
	</g>
</g>
</svg>
