<svg width="34" height="34" viewBox="0 0 34 34" fill="none" xmlns="http://www.w3.org/2000/svg">
<path d="M30.4023 0H20.2023H18.6605H17.9093H3.59767C1.62093 0 0 1.62093 0 3.59767V30.4023C0 32.3791 1.62093 34 3.59767 34H13.9953H30.4023C32.3791 34 34 32.3791 34 30.4023V3.59767C34 1.62093 32.3791 0 30.4023 0ZM1.5814 3.59767C1.5814 2.4907 2.4907 1.5814 3.59767 1.5814H15.1419L1.5814 9.4093V3.59767ZM3.59767 32.4186C2.4907 32.4186 1.5814 31.5093 1.5814 30.4023V12.5721L13.2837 32.4186H3.59767ZM14.6674 20.9535L27.4372 13.5605L24.3535 8.18372L11.5837 15.5767L9.52791 12.0186L22.7326 4.38837L21.1116 1.5814H30.4023C31.5093 1.5814 32.4186 2.4907 32.4186 3.59767V20.1233L30.8767 17.4349L17.1977 25.3023L14.6674 20.9535ZM32.4186 30.4023C32.4186 31.5093 31.5093 32.4186 30.4023 32.4186H18.2256L32.4186 23.4047V30.4023Z" fill="white"/>
</svg>
