<svg width="18" height="20" viewBox="0 0 18 20" fill="none" xmlns="http://www.w3.org/2000/svg">
<path d="M8.22229 0.321136L1.00278 7.54065C0.795461 7.74797 0.68164 8.02032 0.68164 8.31301C0.68164 8.60569 0.795461 8.88211 1.00278 9.08537L1.65725 9.74797C1.86457 9.95528 2.13692 10.0691 2.42961 10.0691C2.72229 10.0691 3.00684 9.95528 3.21416 9.74797L7.43774 5.53252L7.43774 18.9187C7.43774 19.5244 7.90928 20 8.51497 20L9.4418 20C10.0475 20 10.5638 19.5244 10.5638 18.9187L10.5638 5.48374L14.8117 9.74797C15.019 9.95528 15.2873 10.0691 15.58 10.0691C15.8727 10.0691 16.1451 9.95528 16.3483 9.74797L17.0028 9.09349C17.2101 8.88618 17.3199 8.61382 17.3199 8.32114C17.3199 8.02845 17.206 7.75203 16.9987 7.54878L9.77514 0.325203C9.56782 0.117885 9.2914 0.00406418 8.99871 0.0040642C8.70603 -3.50757e-07 8.42961 0.113819 8.22229 0.321136Z" fill="#002154"/>
</svg>
