<svg width="130" height="44" viewBox="0 0 130 44" fill="none" xmlns="http://www.w3.org/2000/svg">
<path d="M0 0H130V44H5C2.23858 44 0 41.7614 0 39V0Z" fill="#FF790C"/>
<path d="M31.598 31.6808L38.8175 24.4613C39.0249 24.254 39.1387 23.9816 39.1387 23.6889C39.1387 23.3963 39.0249 23.1198 38.8175 22.9166L38.1631 22.254C37.9557 22.0467 37.6834 21.9328 37.3907 21.9328C37.098 21.9328 36.8135 22.0467 36.6062 22.254L32.3826 26.4694L32.3826 13.0833C32.3826 12.4776 31.911 12.002 31.3053 12.002L30.3785 12.002C29.7728 12.002 29.2566 12.4776 29.2566 13.0833L29.2566 26.5182L25.0086 22.254C24.8013 22.0467 24.533 21.9328 24.2403 21.9328C23.9476 21.9328 23.6753 22.0467 23.472 22.254L22.8175 22.9085C22.6102 23.1158 22.5005 23.3881 22.5005 23.6808C22.5005 23.9735 22.6143 24.2499 22.8216 24.4532L30.0452 31.6767C30.2525 31.8841 30.5289 31.9979 30.8216 31.9979C31.1143 32.002 31.3907 31.8881 31.598 31.6808Z" fill="white"/>
<path d="M53.9609 23.4844H50.9688V28.8281H49.5625V23.4844H46.6172V22.1562H49.5625V20.8984H46.7812V19.6172H48.3516C48.2005 19.0911 47.9766 18.4818 47.6797 17.7891L48.6328 17.2969H46.8125V16.0156H49.375C49.276 15.7135 49.1146 15.388 48.8906 15.0391L50.4141 14.7031C50.6953 15.25 50.8932 15.6875 51.0078 16.0156H53.6953V17.2969H51.9609L52.9531 17.8438C52.7031 18.4844 52.4323 19.0755 52.1406 19.6172H53.7109V20.8984H50.9688V22.1562H53.9609V23.4844ZM51.6094 17.2969H49.0078C49.362 18.0885 49.6432 18.862 49.8516 19.6172H50.7031C51.0625 18.8984 51.3646 18.125 51.6094 17.2969ZM60.5234 20.9766H59.0703V28.7969H57.6797V20.9766H56.0625C56.0312 24.6224 55.4219 27.2344 54.2344 28.8125L53.0703 27.8594C54.112 26.4583 54.6328 24.3125 54.6328 21.4219V15.9375C56.4193 15.6927 57.9245 15.2969 59.1484 14.75L60.125 15.9375C58.9635 16.4427 57.6094 16.8464 56.0625 17.1484V19.6016H60.5234V20.9766ZM53.6797 26.0312L52.5234 26.6875C52.2786 25.849 51.9375 25.0495 51.5 24.2891L52.6875 23.7422C53.1719 24.5755 53.5026 25.3385 53.6797 26.0312ZM49.1953 24.4922C48.6849 25.8776 48.1667 26.9453 47.6406 27.6953L46.4922 26.8281C47.0443 26.0417 47.5339 25.0677 47.9609 23.9062L49.1953 24.4922ZM74.4766 20.1797H64.6484V15.1172H74.4766V20.1797ZM73.0391 18.9141V16.4297H66.1094V18.9141H73.0391ZM76.0156 28.7812H74.6172V27.9688H71.625V28.7812H70.2188V21.5859H76.0156V28.7812ZM74.6172 26.6875V22.9141H71.625V26.6875H74.6172ZM68.8594 28.7812H67.4375V27.9688H64.4766V28.7812H63.0859V21.5859H68.8594V28.7812ZM67.4375 26.6719V22.9141H64.4766V26.6719H67.4375ZM92.4922 28.4141H78.5391V26.9766H84.2812V14.8281H85.7734V19.6328H91.8047V21.0391H85.7734V26.9766H92.4922V28.4141ZM108.539 17.9375H102.281V19.8906H107.609V25.6641C107.609 26.9141 107.099 27.5391 106.078 27.5391C105.161 27.5391 104.521 27.5339 104.156 27.5234L103.695 26.0625C104.414 26.1042 105.086 26.125 105.711 26.125C105.799 26.125 105.891 26.0911 105.984 26.0234C106.078 25.9505 106.125 25.8672 106.125 25.7734V21.3125H102.281V28.7969H100.828V21.3125H97.0078V27.5078H95.5469V19.8906H100.828V17.9375H94.6172V16.5469H100.859C100.641 16.0781 100.352 15.6016 99.9922 15.1172L101.547 14.7344C101.885 15.2656 102.211 15.8698 102.523 16.5469H108.539V17.9375Z" fill="white"/>
</svg>
