<svg width="130" height="44" viewBox="0 0 130 44" fill="none" xmlns="http://www.w3.org/2000/svg">
<path d="M0 0H130V44H5C2.23858 44 0 41.7614 0 39V0Z" fill="#FF790C"/>
<path d="M30.8281 15.699C30.8281 15.0018 29.9302 14.739 29.5347 15.317C25.9062 20.6206 31.0625 20.8594 31.0625 23.4375C31.0625 24.4814 30.2097 25.326 29.1626 25.3122C28.1322 25.299 27.3125 24.44 27.3125 23.4097V20.9045C27.3125 20.2688 26.537 19.9603 26.0987 20.4211C25.3145 21.2449 24.5 22.6562 24.5 24.375C24.5 27.4767 27.0233 30 30.125 30C33.2267 30 35.75 27.4767 35.75 24.375C35.75 19.386 30.8281 18.7207 30.8281 15.699Z" fill="white"/>
<path d="M51.3203 15.0547C50.9557 16.0755 50.487 16.9818 49.9141 17.7734C50.5078 19.1328 50.8047 21.2344 50.8047 24.0781C50.8047 25.2031 50.7318 26.1641 50.5859 26.9609C50.4453 27.7578 50.2005 28.276 49.8516 28.5156C49.5026 28.7552 48.7396 28.8776 47.5625 28.8828L47.1328 27.5234C47.5339 27.5599 47.8646 27.5781 48.125 27.5781C48.5104 27.5781 48.7526 27.5469 48.8516 27.4844C48.9505 27.4219 49.0469 27.3281 49.1406 27.2031C49.2344 27.0781 49.3151 26.6328 49.3828 25.8672C49.4505 25.1016 49.4844 24.3568 49.4844 23.6328C49.4844 23.237 49.474 22.8958 49.4531 22.6094C48.8594 23.4896 48.1016 24.3594 47.1797 25.2188L46.4297 23.9531C47.8359 22.6771 48.7891 21.5312 49.2891 20.5156C49.2057 19.9479 49.0938 19.4661 48.9531 19.0703C48.224 19.8203 47.5859 20.3542 47.0391 20.6719L46.4297 19.4219C47.237 18.8854 47.888 18.2995 48.3828 17.6641C47.9505 16.9297 47.3672 16.2214 46.6328 15.5391L47.7578 14.7969C48.3359 15.3958 48.8099 15.9505 49.1797 16.4609C49.4453 16.0651 49.7448 15.474 50.0781 14.6875L51.3203 15.0547ZM60.2812 19.7422C60.276 21.1536 60.25 22.8151 60.2031 24.7266C60.1562 26.638 60.0859 27.7057 59.9922 27.9297C59.8984 28.1536 59.7344 28.3646 59.5 28.5625C59.2656 28.7604 58.7161 28.8594 57.8516 28.8594C57.612 28.8594 57.3828 28.849 57.1641 28.8281L56.875 27.5547C57.1094 27.5703 57.3724 27.5781 57.6641 27.5781C58.237 27.5781 58.5599 27.5469 58.6328 27.4844C58.7109 27.4167 58.7656 27.3255 58.7969 27.2109C58.8333 27.0911 58.8672 26.3333 58.8984 24.9375C58.9297 23.5365 58.9375 22.2057 58.9219 20.9453H53.3906C52.974 21.4349 52.599 21.8672 52.2656 22.2422H54.3984V21.4531H55.7422V22.2422H58.0156V25.1875H55.7422V26.125C55.9557 26.1094 56.1953 26.0677 56.4609 26L56.2812 25.7109L57.3906 25.3125C57.8854 26.0365 58.2214 26.612 58.3984 27.0391L57.2734 27.4062C57.2109 27.2396 57.1536 27.1224 57.1016 27.0547C54.9766 27.4609 53.1302 27.7604 51.5625 27.9531L51.2734 26.7344C52.6484 26.5885 53.6901 26.4609 54.3984 26.3516V25.1875H52.125V22.3672C51.8906 22.6016 51.7083 22.7734 51.5781 22.8828L50.9531 21.5703C51.9896 20.612 52.7214 19.6823 53.1484 18.7812H51.6562V15.1172H60.0469V18.7812H53.5L54.4453 19.25C54.4141 19.375 54.3281 19.5391 54.1875 19.7422H60.2812ZM58.6719 17.6328V16.3203H57.7109V17.6328H58.6719ZM56.4141 17.6328V16.3203H55.3594V17.6328H56.4141ZM54.0938 17.6328V16.3203H53.0078V17.6328H54.0938ZM56.7656 24.1094V23.3281H55.7422V24.1094H56.7656ZM54.3984 24.1094V23.3281H53.4219V24.1094H54.3984ZM76.125 18.8984H74.7344V17.2656H64.3516V18.8984H62.9375V16H68.7031C68.5677 15.724 68.3646 15.4089 68.0938 15.0547L69.6094 14.75C69.8646 15.151 70.1042 15.5677 70.3281 16H76.125V18.8984ZM76.6484 26.9922L75.8359 28.1562C73.987 27.1198 72.6172 26.0286 71.7266 24.8828C71.7422 25.1016 71.75 25.3516 71.75 25.6328C71.75 26.8568 71.5729 27.6927 71.2188 28.1406C70.8646 28.5938 70.1797 28.8203 69.1641 28.8203C68.8984 28.8203 68.5521 28.8125 68.125 28.7969L67.6562 27.4375C68.3906 27.4635 68.9141 27.4766 69.2266 27.4766C69.6172 27.4766 69.8724 27.4219 69.9922 27.3125C70.1172 27.2031 70.2135 27.0703 70.2812 26.9141C70.349 26.7526 70.3828 26.263 70.3828 25.4453C70.3828 25.1849 70.3776 24.9427 70.3672 24.7188C68.362 26.4115 65.9505 27.6172 63.1328 28.3359L62.5078 27.1328C65.4141 26.5286 67.9583 25.2448 70.1406 23.2812C70.0521 22.974 69.9401 22.6953 69.8047 22.4453C67.8984 23.9193 65.7161 24.9115 63.2578 25.4219L62.6484 24.2578C64.9505 23.8724 67.1328 22.9375 69.1953 21.4531C69.1641 21.4115 68.9818 21.2109 68.6484 20.8516C67.1797 21.6172 65.474 22.1719 63.5312 22.5156L62.8906 21.2969C65.0625 21.0729 67.0677 20.4479 68.9062 19.4219H65.0234V18.1797H74.0625V19.4219H70.7812C70.5208 19.6823 70.1953 19.9271 69.8047 20.1562C70.4714 20.8854 70.9505 21.6432 71.2422 22.4297C72.3411 21.8828 73.3932 21.1146 74.3984 20.125L75.4062 21.0234C74.4583 21.9297 73.3438 22.7188 72.0625 23.3906C73.0521 24.7344 74.5807 25.9349 76.6484 26.9922ZM92.5234 17.1016H88.2188L89.2891 17.6797C89.1224 18.0703 88.8724 18.4974 88.5391 18.9609H91.8516V27.3906C91.8516 27.7031 91.7656 27.974 91.5938 28.2031C91.4219 28.4375 91.224 28.599 91 28.6875C90.7812 28.776 90.4167 28.8203 89.9062 28.8203C89.6406 28.8203 89.3125 28.8073 88.9219 28.7812L88.4766 27.4531C88.7474 27.4688 88.9974 27.4766 89.2266 27.4766C89.8516 27.4766 90.2161 27.4531 90.3203 27.4062C90.4245 27.3542 90.4766 27.2578 90.4766 27.1172V20.2422H87.8359V21.2969C87.8359 21.3438 87.8646 21.3984 87.9219 21.4609C87.9792 21.5234 88.0312 21.5547 88.0781 21.5547H89.9609V22.75H87.4688C87.224 22.75 86.9974 22.6458 86.7891 22.4375C86.5807 22.2292 86.4766 22.0026 86.4766 21.7578V20.2422H84.6484C84.6484 21.9453 83.651 23 81.6562 23.4062L80.9688 22.2109C82.5156 21.9661 83.2943 21.3099 83.3047 20.2422H80.6719V28.7969H79.2734V18.9609H82.6328C82.263 18.362 81.9661 17.9245 81.7422 17.6484L82.7812 17.1016H78.6328V15.8594H84.8438C84.7708 15.6615 84.6484 15.3828 84.4766 15.0234L85.9453 14.7031C86.0859 15 86.2266 15.3854 86.3672 15.8594H92.5234V17.1016ZM87.9453 17.1016H83.1328C83.5755 17.7005 83.9479 18.3203 84.25 18.9609H86.9062C87.1979 18.5599 87.5443 17.9401 87.9453 17.1016ZM89.0547 27.0547H82.1562V23.5703H89.0547V27.0547ZM87.6797 25.8203V24.7656H83.5469V25.8203H87.6797ZM106.477 20.1797H96.6484V15.1172H106.477V20.1797ZM105.039 18.9141V16.4297H98.1094V18.9141H105.039ZM108.016 28.7812H106.617V27.9688H103.625V28.7812H102.219V21.5859H108.016V28.7812ZM106.617 26.6875V22.9141H103.625V26.6875H106.617ZM100.859 28.7812H99.4375V27.9688H96.4766V28.7812H95.0859V21.5859H100.859V28.7812ZM99.4375 26.6719V22.9141H96.4766V26.6719H99.4375Z" fill="white"/>
</svg>
