<svg width="36" height="35" viewBox="0 0 36 35" fill="none" xmlns="http://www.w3.org/2000/svg">
<path d="M31.1133 9.16667C30.7904 9.16667 30.4622 9.26042 30.1654 9.46354L24.4518 13.026V9.98958C24.4518 8.61458 23.2435 7.5 21.7539 7.5H5.48307C3.99349 7.5 2.78516 8.61458 2.78516 9.98958V25.0104C2.78516 26.3854 3.99349 27.5 5.48307 27.5H21.7539C23.2435 27.5 24.4518 26.3854 24.4518 25.0104V21.974L30.1654 25.5312C30.4622 25.7396 30.7956 25.8281 31.1133 25.8281C31.9779 25.8281 32.7852 25.151 32.7852 24.1875V10.8073C32.7852 9.84375 31.9779 9.16667 31.1133 9.16667ZM21.9518 24.9427C21.9206 24.9635 21.8581 25 21.7539 25H5.48307C5.37891 25 5.31641 24.9687 5.28516 24.9427V10.0573C5.31641 10.0365 5.37891 10 5.48307 10H21.7539C21.8581 10 21.9206 10.0312 21.9518 10.0573V24.9427ZM30.2852 22.6667L24.4518 19.0312V15.974L30.2852 12.3385V22.6667Z" fill="#006DC9"/>
<path d="M17.5332 16.3545L11.752 13.016C10.8717 12.5055 9.76758 13.141 9.76758 14.1618V20.8389C9.76758 21.8597 10.8717 22.4951 11.752 21.9847L17.5332 18.6462C18.4186 18.1358 18.4186 16.8649 17.5332 16.3545Z" fill="#EF3D3B"/>
</svg>
