<?xml version="1.0" encoding="utf-8"?>
<!-- Generator: Adobe Illustrator 25.0.1, SVG Export Plug-In . SVG Version: 6.00 Build 0)  -->
<svg version="1.1" id="圖層_1" xmlns="http://www.w3.org/2000/svg" xmlns:xlink="http://www.w3.org/1999/xlink" x="0px" y="0px"
	 viewBox="0 0 20 20" style="enable-background:new 0 0 20 20;" xml:space="preserve">
<style type="text/css">
	.st0{clip-path:url(#SVGID_2_);}
	.st1{fill:#424242;}
</style>
<g>
	<defs>
		<rect id="SVGID_1_" width="20" height="20"/>
	</defs>
	<clipPath id="SVGID_2_">
		<use xlink:href="#SVGID_1_"  style="overflow:visible;"/>
	</clipPath>
	<g class="st0">
		<path class="st1" d="M4.7,9C5.9,9,7,8.5,7.9,7.7c0.8-0.8,1.3-2,1.4-3.2c0-1.2-0.5-2.4-1.3-3.2C7.1,0.5,5.9,0,4.7,0
			C3.5,0,2.3,0.5,1.5,1.3c-0.9,0.9-1.3,2-1.3,3.2c0,1.2,0.5,2.3,1.4,3.2C2.4,8.5,3.5,9,4.7,9z M4.7,0.8c1,0,1.9,0.4,2.6,1.1
			C8,2.6,8.4,3.6,8.4,4.5c0,1-0.4,1.9-1.1,2.6C6.6,7.8,5.7,8.2,4.7,8.2c-1,0-1.9-0.4-2.6-1.1C1.4,6.4,1,5.5,1,4.5
			c0-1,0.4-1.9,1.1-2.6C2.8,1.2,3.7,0.8,4.7,0.8z"/>
		<path class="st1" d="M15.3,9c0.6,0,1.2-0.1,1.7-0.3c0.5-0.2,1-0.6,1.4-1c0.4-0.4,0.7-0.9,1-1.4c0.2-0.5,0.3-1.1,0.3-1.7
			c0-1.2-0.5-2.3-1.3-3.2c-0.8-0.8-2-1.3-3.2-1.4c-1.2,0-2.4,0.5-3.2,1.3c-0.9,0.9-1.3,2-1.3,3.2c0,1.2,0.5,2.3,1.4,3.2
			C13,8.5,14.1,9,15.3,9z M15.3,0.8c1,0,1.9,0.4,2.6,1.1c0.7,0.7,1.1,1.6,1.1,2.6c0,1-0.4,1.9-1.1,2.6c-0.7,0.7-1.6,1.1-2.6,1.1
			c-1,0-1.9-0.4-2.6-1.1c-0.7-0.7-1.1-1.6-1.1-2.6c0-1,0.4-1.9,1.1-2.6C13.4,1.2,14.3,0.8,15.3,0.8z"/>
		<path class="st1" d="M4.7,20.2L9.5,10H0L4.7,20.2z M4.7,18.2l-3.4-7.4h6.9L4.7,18.2z"/>
		<path class="st1" d="M15.3,9.5l-4.8,10.1H20L15.3,9.5z M15.3,11.4l3.4,7.3h-6.9L15.3,11.4z"/>
	</g>
</g>
</svg>
