<?xml version="1.0" encoding="utf-8"?>
<!-- Generator: Adobe Illustrator 25.0.1, SVG Export Plug-In . SVG Version: 6.00 Build 0)  -->
<svg version="1.1" id="圖層_1" xmlns="http://www.w3.org/2000/svg" xmlns:xlink="http://www.w3.org/1999/xlink" x="0px" y="0px"
	 viewBox="0 0 20 20" style="enable-background:new 0 0 20 20;" xml:space="preserve">
<style type="text/css">
	.st0{clip-path:url(#SVGID_2_);}
	.st1{fill:#FFFFFF;}
</style>
<g>
	<defs>
		<rect id="SVGID_1_" x="2.8" width="14.3" height="20"/>
	</defs>
	<clipPath id="SVGID_2_">
		<use xlink:href="#SVGID_1_"  style="overflow:visible;"/>
	</clipPath>
	<g class="st0">
		<path class="st1" d="M10,0C8.2,0,6.5,1,5.6,2.6H2.8l0.8,5.2h1.8C6.3,9.6,8,10.7,10,10.7c1.9,0,3.7-1.1,4.5-2.9h1.8l0.8-5.2h-2.8
			C13.5,1,11.8,0,10,0z M10,1.3c1.1,0,2.1,0.5,2.8,1.3h-1.6L10,4.3L8.8,2.6H7.2C7.9,1.8,8.9,1.3,10,1.3z M4.4,3.9h3.8L8.9,5L8.1,6.5
			H4.8L4.4,3.9z M10,9.4c-1.2,0-2.3-0.6-3-1.5h1.9L10,5.7l1.2,2.1H13C12.3,8.8,11.2,9.4,10,9.4z M15.2,6.5H12L11.1,5l0.8-1.1h3.8
			L15.2,6.5z"/>
		<path class="st1" d="M9.9,11.2c-3.8,0-6.7,2.2-6.7,5.2V20h1.3v-3.5c0-2.2,2.3-3.9,5.4-3.9c3.1,0,5.6,1.8,5.6,4.1V20h1.3v-3.4
			C16.8,13.7,13.7,11.2,9.9,11.2z"/>
	</g>
</g>
</svg>
