<?xml version="1.0" encoding="utf-8"?>
<!-- Generator: Adobe Illustrator 25.0.1, SVG Export Plug-In . SVG Version: 6.00 Build 0)  -->
<svg version="1.1" id="圖層_1" xmlns="http://www.w3.org/2000/svg" xmlns:xlink="http://www.w3.org/1999/xlink" x="0px" y="0px"
	 viewBox="0 0 20 20" style="enable-background:new 0 0 20 20;" xml:space="preserve">
<style type="text/css">
	.st0{fill:#424242;}
</style>
<g>
	<path class="st0" d="M16,1.9H3.9c-1,0-2,0.4-2.8,1.2C0.4,3.9,0,4.9,0,5.9v8.1c0,1,0.4,2.1,1.1,2.8c0.7,0.7,1.7,1.2,2.8,1.2H16
		c0.5,0,1-0.1,1.5-0.3s0.9-0.5,1.3-0.9c0.4-0.4,0.7-0.8,0.9-1.3s0.3-1,0.3-1.5V5.9c0-1.1-0.4-2.1-1.2-2.8C18.1,2.3,17.1,1.9,16,1.9z
		 M19.3,14.1c0,0.4-0.1,0.9-0.3,1.3c-0.2,0.4-0.4,0.8-0.7,1.1c-0.3,0.3-0.7,0.5-1.1,0.7c-0.4,0.2-0.8,0.3-1.3,0.3H3.9
		c-0.9,0-1.7-0.4-2.3-1c-0.6-0.6-0.9-1.4-0.9-2.3V5.9c0-0.9,0.3-1.7,0.9-2.3c0.6-0.6,1.4-1,2.3-1H16c0.9,0,1.7,0.3,2.3,1
		c0.6,0.6,1,1.5,1,2.3V14.1z"/>
	<path class="st0" d="M10.1,10.6h6.6V4.8h-6.6V10.6z M10.9,5.5h5.2v4.4h-5.2V5.5z"/>
	<path class="st0" d="M8.6,6.2H2.4v0.7h6.1V6.2z"/>
	<path class="st0" d="M8.6,8.6H2.4v0.7h6.1V8.6z"/>
	<path class="st0" d="M16.4,12.1h-14v0.7h14V12.1z"/>
	<path class="st0" d="M16.4,14.4h-14v0.7h14V14.4z"/>
</g>
</svg>
